<?xml version="1.0" standalone="no"?>
<!DOCTYPE svg PUBLIC "-//W3C//DTD SVG 1.1//EN" "http://www.w3.org/Graphics/SVG/1.1/DTD/svg11.dtd" >
<!--
2019-10-13: Created with FontForge (http://fontforge.org)
-->
<svg xmlns="http://www.w3.org/2000/svg" xmlns:xlink="http://www.w3.org/1999/xlink" version="1.1">
<metadata>
Created by FontForge 20170731 at Sun Oct 13 00:07:57 2019
 By root

</metadata>
<defs>
<font id="Flaticon" horiz-adv-x="512" >
  <font-face 
    font-family="Flaticon"
    font-weight="400"
    font-stretch="normal"
    units-per-em="512"
    panose-1="2 0 5 3 0 0 0 0 0 0"
    ascent="448"
    descent="-64"
    bbox="-0.000422391 -64.002 512.001 448"
    underline-thickness="25.6"
    underline-position="-51.2"
    unicode-range="U+0020-F111"
  />
    <missing-glyph />
    <glyph glyph-name="space" unicode=" " horiz-adv-x="200" 
 />
    <glyph glyph-name="008-chemistry" unicode="&#xf107;" 
d="M472 0c4.41602 0 8 -3.58398 8 -8v-32c0 -4.41602 -3.58398 -8 -8 -8s-8 3.58398 -8 8v24h-448v-24c0 -4.41602 -3.58398 -8 -8 -8s-8 3.58398 -8 8v32c0 4.41602 3.58398 8 8 8h17.4717c-0.790039 2.1377 -1.44922 5.72168 -1.47168 8v72c-4.41602 0 -8 3.58398 -8 8
s3.58398 8 8 8h16v72c0 13.248 10.752 24 24 24h56c13.248 0 24 -10.752 24 -24v-9.47168c2.1377 0.790039 5.72168 1.44922 8 1.47168h80c13.248 0 24 -10.752 24 -24v-24h24c4.41602 0 8 -3.58398 8 -8s-3.58398 -8 -8 -8h-8v-34.6641
c0.00292969 -1.4707 0.719727 -3.62109 1.59961 -4.7998l16 -21.3359c3.52246 -4.71387 6.38965 -13.3154 6.40039 -19.2002v-8c-0.0224609 -2.27832 -0.681641 -5.8623 -1.47168 -8h177.472zM256 80v16h-16v-16h16zM152 144c-4.41602 0 -8 -3.58398 -8 -8v-24h24
c4.41602 0 8 -3.58398 8 -8s-3.58398 -8 -8 -8h-8v-22.4717c13.2471 -7.61719 23.998 -26.2002 23.998 -41.4805c0 -10.1523 -5.51855 -24.5098 -12.3184 -32.0479h29.792c-0.790039 2.1377 -1.44922 5.72168 -1.47168 8v8
c0.0107422 5.88477 2.87793 14.4863 6.40039 19.2002l16 21.3359c0.879883 1.17871 1.59668 3.3291 1.59961 4.7998v34.6641h-8c-4.41602 0 -8 3.58398 -8 8s3.58398 8 8 8h24v24c0 4.41602 -3.58398 8 -8 8h-80zM104.184 30.1924h-0.0400391
c0.831055 -16.752 15.1172 -30.3467 31.8896 -30.3467c17.624 0 31.9277 14.3037 31.9277 31.9277c0 0.0625 -0.000976562 0.164062 -0.000976562 0.226562c0 0.776367 -0.112305 1.52832 -0.167969 2.28809l-2.07227 0.696289
c-2.84473 0.955078 -7.58887 1.73145 -10.5908 1.73145c-4.35645 0 -11.0527 -1.58984 -14.9453 -3.54785c-5.61816 -2.87598 -15.3008 -5.20996 -21.6133 -5.20996c-4.06641 0 -10.5117 1.00098 -14.3867 2.23438zM56 168v-72h16c4.41602 0 8 -3.58398 8 -8
s-3.58398 -8 -8 -8v-72c-0.0224609 -2.27832 -0.681641 -5.8623 -1.47168 -8h29.792c-6.78418 7.53418 -12.29 21.8779 -12.29 32.0166c0 15.3574 10.8311 33.9863 24.1777 41.583c0.732422 3.5166 4.24121 6.37012 7.83203 6.37012c4.39941 0 7.9834 -3.57031 8 -7.96973
v-3.40039c-0.00195312 -2.88867 -2.15234 -6.17188 -4.7998 -7.32715c-5.9873 -2.61523 -13.1553 -9.51074 -16 -15.3926c2.95117 -1.0293 7.88379 -1.86523 11.0098 -1.86523c4.31445 0 10.9551 1.55273 14.8223 3.46582c5.73926 2.87891 15.6094 5.2168 22.0312 5.2168
c1.5127 0 3.96094 -0.136719 5.46484 -0.305664c-2.66602 3.22754 -7.93848 7.2168 -11.7686 8.9043c-2.64746 1.15625 -4.79785 4.43848 -4.7998 7.32812v27.376h-40c-4.41602 0 -8 3.58398 -8 8s3.58398 8 8 8h24v56c0 4.41602 -3.58398 8 -8 8h-56
c-4.41602 0 -8 -3.58398 -8 -8zM56 80h-16v-16h16v16zM40 8c0 -4.41602 3.58398 -8 8 -8s8 3.58398 8 8v40h-16v-40zM224 0h48c4.41602 0 8 3.58398 8 8v8c-0.00488281 2.94043 -1.43848 7.2373 -3.2002 9.5918l-16 21.3438
c-2.64258 3.53516 -4.79297 9.98633 -4.7998 14.4004v2.66406h-16v-2.66406c-0.00683594 -4.41406 -2.15723 -10.8652 -4.7998 -14.4004l-16 -21.3359c-1.76074 -2.35645 -3.19434 -6.65723 -3.2002 -9.59961v-8c0 -4.41602 3.58398 -8 8 -8zM440 24
c0 -4.41602 -3.58398 -8 -8 -8s-8 3.58398 -8 8v56c0 4.41602 3.58398 8 8 8s8 -3.58398 8 -8v-56zM312 264c0 4.41797 3.58203 8 8 8s8 -3.58203 8 -8s-3.58203 -8 -8 -8s-8 3.58203 -8 8zM392 264c0 4.41797 3.58203 8 8 8s8 -3.58203 8 -8s-3.58203 -8 -8 -8
s-8 3.58203 -8 8zM370.344 213.656c1.28418 1.23926 3.77344 2.24512 5.55762 2.24512c4.41602 0 8 -3.58398 8 -8c0 -1.78418 -1.00586 -4.27344 -2.24512 -5.55762c-4.9541 -4.94629 -14.6553 -8.96094 -21.6562 -8.96094s-16.7021 4.01465 -21.6562 8.96094
c-1.23926 1.28418 -2.24512 3.77344 -2.24512 5.55762c0 4.41602 3.58398 8 8 8c1.78418 0 4.27344 -1.00586 5.55762 -2.24512c2.36621 -2.36133 7.00098 -4.27734 10.3438 -4.27734s7.97754 1.91602 10.3438 4.27734zM424 176c30.877 -0.0351562 55.9648 -25.123 56 -56
v-96c0 -4.41602 -3.58398 -8 -8 -8s-8 3.58398 -8 8v96c-0.0263672 22.0537 -17.9463 39.9736 -40 40h-16l12.7998 -9.59961c1.75488 -1.3252 3.17969 -4.18555 3.17969 -6.38477c0 -1.34375 -0.607422 -3.33984 -1.35547 -4.45605l-13.8242 -20.7432l6.79199 -20.3203
c0.225586 -0.677734 0.408203 -1.80859 0.408203 -2.52344c0 -1.17383 -0.472656 -2.9541 -1.05566 -3.97266l-30.9443 -54.1201v-13.8799c0 -4.41602 -3.58398 -8 -8 -8s-8 3.58398 -8 8v16c-0.00195312 0.03125 -0.00292969 0.0810547 -0.00292969 0.112305
c0 0.0302734 0.000976562 0.0810547 0.00292969 0.111328v0.272461l7.48828 119.504h-30.9766l7.44043 -119.504c0.0400391 -0.0878906 0 -0.175781 0 -0.272461c0.0166016 -0.0605469 0.0380859 -0.161133 0.0478516 -0.223633v-16c0 -4.41602 -3.58398 -8 -8 -8
s-8 3.58398 -8 8v13.8799l-30.9121 54.1523c-0.583008 1.01855 -1.05664 2.79883 -1.05664 3.97266c0 0.714844 0.183594 1.84473 0.40918 2.52344l6.75977 20.2881l-13.8564 20.7432c-0.742188 1.11328 -1.34473 3.10254 -1.34473 4.43945
c0 2.20898 1.43457 5.07617 3.20117 6.40137l12.7998 9.59961h-16h-0.0224609c-6.74609 0 -16.7529 -3.07129 -22.3379 -6.85645c-1.08984 -0.699219 -3.02539 -1.2666 -4.32031 -1.2666c-4.41602 0 -8 3.58398 -8 8c0 2.28027 1.50879 5.20312 3.36914 6.52344
c7.82129 5.29883 21.8369 9.59961 31.2842 9.59961h0.0273438h18.8477c-12.9434 10.4111 -24.8057 32.2734 -26.4795 48.7998c-17.8193 3.48242 -32.3203 21.0439 -32.3682 39.2002v32c0 4.41602 3.58398 8 8 8h8.87988c-9.31738 9.07129 -16.8799 26.9883 -16.8799 39.9922
v0.0078125v24c0 4.41602 3.58398 8 8 8h144c30.877 -0.0351562 55.9648 -25.123 56 -56v-56c-0.0263672 -22.0537 -17.9463 -39.9736 -40 -40h-32c-11.04 0 -25.376 7.16797 -32 16c-6.62402 -8.83203 -20.96 -16 -32 -16h-23.3604
c3.79102 -26.4961 28.5908 -48.001 55.3564 -48.001c17.8389 0 39.5459 12.5449 48.4521 28.001c1.23926 2.36914 4.41504 4.29199 7.08887 4.29199c4.41602 0 8 -3.58398 8 -8c0 -1.28516 -0.55957 -3.20801 -1.24902 -4.29199
c-3.73926 -6.41406 -11.4883 -15.374 -17.2959 -20h19.0078zM272 344c0.0263672 -22.0537 17.9463 -39.9736 40 -40h136v16c-0.0263672 22.0537 -17.9463 39.9736 -40 40h-136v-16zM272 264c0 -13.248 10.752 -24 24 -24h32c13.248 0 24 10.752 24 24
c0 4.41602 3.58398 8 8 8s8 -3.58398 8 -8c0 -13.248 10.752 -24 24 -24h32c13.248 0 24 10.752 24 24v24h-176v-24zM320.72 96.8643l13.1445 -23.0078l-4.91992 78.8477l-14.0879 -10.5605l11.7998 -17.7031c0.742188 -1.11328 1.3457 -3.10254 1.3457 -4.44141
c0 -0.71582 -0.183594 -1.84766 -0.410156 -2.52734zM392.408 117.472c-0.226562 0.679688 -0.410156 1.81152 -0.410156 2.52734c0 1.33887 0.603516 3.32812 1.3457 4.44141l11.7998 17.7031l-14.0879 10.5605l-4.91992 -78.8477l13.1445 23.0078zM64 336
c2.70508 -0.03125 6.98438 -0.748047 9.55176 -1.59961l11.7363 18.752c-2.91895 3.63379 -5.28711 10.3662 -5.28711 15.0273c0 13.248 10.752 24 24 24s24 -10.752 24 -24c0 -0.0498047 -0.000976562 -0.129883 -0.000976562 -0.179688
c-0.0244141 -1.78223 -0.450195 -4.61719 -0.952148 -6.32812l12.9521 -13.1836c6.43945 6.35547 19.0078 11.5146 28.0557 11.5146c22.0449 0 39.9355 -17.8916 39.9355 -39.9365s-17.8906 -39.9355 -39.9355 -39.9355c-15.3311 0 -32.1045 11.6641 -37.4395 26.0371
l-34.9443 -5.36816c-1.59766 -15.8975 -15.8623 -28.7998 -31.8398 -28.7998c-17.6641 0 -32 14.3369 -32 32c0 17.6641 14.3359 32 32 32h0.167969zM64 288c8.83203 0 16 7.16797 16 16s-7.16797 16 -16 16s-16 -7.16797 -16 -16s7.16797 -16 16 -16zM104 344
c-1.45117 0.00976562 -3.77734 0.27832 -5.19238 0.599609l-11.6475 -18.6396c2.17773 -2.27344 4.96973 -6.45996 6.23145 -9.34375l34.8086 5.35156c0.155273 3.69141 1.38086 9.47559 2.73535 12.9121l-13.2314 13.4717
c-3.40137 -2.40137 -9.54102 -4.35059 -13.7041 -4.35156zM168 344c-13.248 0 -24 -10.752 -24 -24s10.752 -24 24 -24s24 10.752 24 24s-10.752 24 -24 24zM104 376c-4.41602 0 -8 -3.58398 -8 -8s3.58398 -8 8 -8s8 3.58398 8 8s-3.58398 8 -8 8zM56 232
c-30.877 0.0351562 -55.9648 25.123 -56 56v32c0 4.41602 3.58398 8 8 8s8 -3.58398 8 -8v-32c0.0263672 -22.0537 17.9463 -39.9736 40 -40h88c1.8291 0 4.36328 -1.05078 5.65625 -2.34375l34.3438 -34.3447v28.6885c0 4.41602 3.58398 8 8 8h16
c8.83203 0 16 7.16797 16 16v32c0 4.41602 3.58398 8 8 8s8 -3.58398 8 -8v-32c0 -17.6641 -14.3359 -32 -32 -32h-8v-40c-0.000976562 -4.41504 -3.58496 -7.99805 -8 -7.99805c-1.8291 0 -4.3623 1.04883 -5.65625 2.3418l-45.6553 45.6562h-84.6885zM8 344
c-4.41602 0 -8 3.58398 -8 8v16c0.0351562 30.877 25.123 55.9648 56 56h128c30.877 -0.0351562 55.9648 -25.123 56 -56v-40c0 -4.41602 -3.58398 -8 -8 -8s-8 3.58398 -8 8v40c-0.0263672 22.0537 -17.9463 39.9736 -40 40h-128
c-22.0537 -0.0263672 -39.9736 -17.9463 -40 -40v-16c0 -4.41602 -3.58398 -8 -8 -8z" />
    <glyph glyph-name="012-tablet" unicode="&#xf10b;" 
d="M408.244 437.443c16.1904 0 29.3623 -13.1719 29.3623 -29.3633v-360.256c0 -16.1914 -13.1719 -29.3633 -29.3623 -29.3633h-209.867v-12.1523c6.96484 -1.91797 12.1016 -8.29004 12.1016 -15.8555v-46.9434c0 -4.14844 -3.3623 -7.51074 -7.51074 -7.51074
c-4.14746 0 -7.51074 3.3623 -7.51074 7.51074v46.9434c0 0.792969 -0.644531 1.4375 -1.4375 1.4375h-77.8047c-0.792969 0 -1.4375 -0.644531 -1.4375 -1.4375v-46.9434c0 -4.14844 -3.36328 -7.51074 -7.51074 -7.51074c-4.14844 0 -7.51074 3.3623 -7.51074 7.51074
v46.9434c0 7.56543 5.13672 13.9385 12.1025 15.8555v31.1855l-32.8652 73.918c-7.11133 15.9932 -5.92285 34.4648 3.17871 49.4111c24.3535 39.9961 39.9395 65.6562 43.8242 72.1475v175.109c0 16.1914 13.1729 29.3633 29.3633 29.3633h168.471
c2.29492 6.1543 8.21484 10.5566 15.1582 10.5566h30.3916c6.94531 0 12.8643 -4.40234 15.1602 -10.5566h23.7041zM337.821 431.81v-54.9502l13.2178 6.09863c1.99609 0.920898 4.29688 0.920898 6.29297 0l13.2178 -6.09863v54.9502
c0 0.645508 -0.523438 1.16895 -1.16895 1.16895h-30.3916c-0.644531 0 -1.16797 -0.523438 -1.16797 -1.16895zM92.7197 117.516l33.5117 -75.3721c0.427734 -0.959961 0.648438 -2 0.648438 -3.05078v-32.1768h56.4756v64.0625
c0 7.48242 -2.25684 14.6846 -6.52539 20.8291l-13.5625 19.5215c-0.873047 1.25781 -1.3418 2.75293 -1.3418 4.28516v39.1807c0 5.76367 -4.69043 10.4541 -10.4541 10.4541c-5.76465 0 -10.4541 -4.69043 -10.4541 -10.4541v-40.8877v-9.24609
c0 -4.14746 -3.3623 -7.51074 -7.51074 -7.51074c-4.14746 0 -7.51074 3.36328 -7.51074 7.51074v9.24609v40.8877v49.1709c-0.717773 -1.18359 -1.44727 -2.38379 -2.19727 -3.61816c-9.12012 -15.0117 -20.3506 -33.4658 -28.7969 -47.335
c-6.53711 -10.7363 -7.39062 -24.0068 -2.28223 -35.4971zM422.585 47.8262v360.254c0 7.9082 -6.43262 14.3418 -14.3408 14.3418h-22.6729v-10.0146h19.4893c4.14746 0 7.51074 -3.36328 7.51074 -7.51074v-226.367c0 -4.14746 -3.36328 -7.51074 -7.51074 -7.51074
c-4.14844 0 -7.51074 3.36328 -7.51074 7.51074v218.855h-11.9785v-27.4795c0 -3.62305 -1.82227 -6.95312 -4.87402 -8.90527c-1.73535 -1.11035 -3.70898 -1.67383 -5.69336 -1.67383c-1.50488 0 -3.01562 0.324219 -4.43555 0.979492l-16.3828 7.55957l-16.3838 -7.55957
c-3.29004 -1.51758 -7.07617 -1.25879 -10.1279 0.695312c-3.05273 1.95312 -4.87402 5.28223 -4.87402 8.90527v27.4795h-156.745v-38.6719c0 -4.14746 -3.36328 -7.51074 -7.51074 -7.51074c-4.14844 0 -7.51074 3.36328 -7.51074 7.51074v46.1826
c0 4.14746 3.3623 7.51074 7.51074 7.51074h164.256v10.0146h-167.439c-7.9082 0 -14.3418 -6.43359 -14.3418 -14.3418v-230.064c3.06641 1.38672 6.45117 2.18164 10.0146 2.24219v147.982c0 4.14746 3.3623 7.51074 7.51074 7.51074
c4.14746 0 7.51074 -3.36328 7.51074 -7.51074v-152.575c6.5791 -4.61133 10.8936 -12.2451 10.8936 -20.8711v-36.8291l12.2188 -17.5879c6.02637 -8.67383 9.21094 -18.8398 9.21094 -29.4004v-12.4561h199.172v89.5361c0 4.14746 3.3623 7.51074 7.51074 7.51074
c4.14746 0 7.51074 -3.36328 7.51074 -7.51074v-97.0469c0 -4.14844 -3.36328 -7.51074 -7.51074 -7.51074h-206.683v-10.0146h209.866c7.9082 0 14.3408 6.43359 14.3408 14.3418zM378.06 206.172c4.14844 0 7.51074 -3.3623 7.51172 -7.51074v-71.2334
c0 -4.14844 -3.36328 -7.51074 -7.51074 -7.51074h-176.83c-4.14746 0 -7.51074 3.3623 -7.51074 7.51074c0 4.14746 3.36328 7.51074 7.51074 7.51074h169.319v56.2119h-183.339c-4.14844 0 -7.51074 3.36328 -7.51074 7.51074c0 4.14844 3.3623 7.51074 7.51074 7.51074
h190.849zM257.301 296.99h-72.082c-5.11328 0 -9.27441 4.16113 -9.27441 9.27441v72.082c0 5.11328 4.16113 9.27441 9.27441 9.27441h72.082c5.11426 0 9.27441 -4.16113 9.27441 -9.27441v-72.082c0 -5.11328 -4.16113 -9.27441 -9.27441 -9.27441zM190.965 372.6
v-60.5879h60.5879v60.5879h-60.5879zM190.867 238.444h22.8701c4.14844 0 7.51074 -3.3623 7.51074 -7.51074c0 -4.14746 -3.3623 -7.51074 -7.51074 -7.51074h-22.8701c-4.14844 0 -7.51074 3.36328 -7.51074 7.51074c0 4.14844 3.3623 7.51074 7.51074 7.51074z
M378.06 240.225c4.14844 0 7.51074 -3.3623 7.51074 -7.51074c0 -4.14746 -3.36328 -7.51074 -7.51074 -7.51074h-136.76c-4.14746 0 -7.51074 3.36328 -7.51074 7.51074c0 4.14844 3.36328 7.51074 7.51074 7.51074h136.76zM378.06 277.009
c4.14844 0 7.51074 -3.36328 7.51074 -7.51074c0 -4.14844 -3.36328 -7.51074 -7.51074 -7.51074h-22.8701c-4.14746 0 -7.51074 3.3623 -7.51074 7.51074c0 4.14746 3.36328 7.51074 7.51074 7.51074h22.8701zM335.138 267.717
c0 -4.14746 -3.3623 -7.51074 -7.51074 -7.51074h-136.76c-4.14844 0 -7.51074 3.36328 -7.51074 7.51074c0 4.14844 3.3623 7.51074 7.51074 7.51074h136.76c4.14844 0 7.51074 -3.3623 7.51074 -7.51074zM287.104 296.99c-4.14844 0 -7.51074 3.3623 -7.51074 7.51074
c0 4.14746 3.3623 7.51074 7.51074 7.51074h14.5918c4.14746 0 7.51074 -3.36328 7.51074 -7.51074c0 -4.14844 -3.36328 -7.51074 -7.51074 -7.51074h-14.5918zM378.06 312.012c4.14844 0 7.51074 -3.36328 7.51074 -7.51074
c0 -4.14844 -3.36328 -7.51074 -7.51074 -7.51074h-50.4336c-4.14746 0 -7.51074 3.3623 -7.51074 7.51074c0 4.14746 3.36328 7.51074 7.51074 7.51074h50.4336zM378.06 349.816c4.14844 0 7.51074 -3.3623 7.51074 -7.51074
c0 -4.14746 -3.36328 -7.51074 -7.51074 -7.51074h-14.5918c-4.14844 0 -7.51074 3.36328 -7.51074 7.51074c0 4.14844 3.3623 7.51074 7.51074 7.51074h14.5918zM287.104 334.795c-4.14844 0 -7.51074 3.36328 -7.51074 7.51074c0 4.14844 3.3623 7.51074 7.51074 7.51074
h50.4326c4.14844 0 7.51074 -3.3623 7.51074 -7.51074c0 -4.14746 -3.3623 -7.51074 -7.51074 -7.51074h-50.4326z" />
    <glyph glyph-name="003-reminder" unicode="&#xf102;" 
d="M293.165 393.267c4.61328 0 8.3877 -3.77441 8.3877 -8.3877s-3.77441 -8.38867 -8.3877 -8.38867h-135.782c-4.61328 0 -8.3877 3.77539 -8.3877 8.38867s3.77441 8.3877 8.3877 8.3877h135.782zM334.477 426.295c4.61328 0 8.3877 -3.77441 8.3877 -8.3877v-65.3223
c0 -4.61328 -3.77441 -8.38867 -8.3877 -8.38867c-4.61426 0 -8.38867 3.77539 -8.38867 8.38867v65.3223c0 4.61328 3.77441 8.3877 8.38867 8.3877zM117.435 426.295c4.61426 0 8.38867 -3.77441 8.38867 -8.3877v-65.3223
c0 -4.61328 -3.77441 -8.38867 -8.38867 -8.38867c-4.61328 0 -8.3877 3.77539 -8.3877 8.38867v65.3223c0 4.61328 3.77441 8.3877 8.3877 8.3877zM389.313 290.513c4.61328 0 8.3877 -3.77441 8.3877 -8.3877s-3.77441 -8.3877 -8.49316 -8.3877h-326.715
c-4.61328 0 -8.3877 3.77441 -8.3877 8.3877s3.77441 8.3877 8.3877 8.3877h326.82zM312.981 224.457c4.61328 0 8.38867 -3.77441 8.38867 -8.3877s-3.66992 -8.38867 -8.38867 -8.38867h-250.488c-4.61328 0 -8.3877 3.77539 -8.3877 8.38867
s3.77441 8.3877 8.3877 8.3877h250.488zM204.042 159.449c4.61328 0 8.3877 -3.77441 8.3877 -8.3877s-3.77441 -8.3877 -8.3877 -8.3877h-141.549c-4.61328 0 -8.3877 3.77441 -8.3877 8.3877s3.77441 8.3877 8.3877 8.3877h141.549zM499.406 120.97
c28.415 -54.7324 7.12988 -122.257 -47.6025 -150.671c-54.7314 -28.415 -122.256 -7.12988 -150.67 47.6025h-293.059h-0.523438c-4.29883 0.104492 -7.6543 3.66992 -7.5498 7.96875v359.428v0.524414c0.209961 4.29883 3.77441 7.5498 8.07324 7.44434h65.3223
c4.61328 0 8.38867 -3.77441 8.38867 -8.3877s-3.77539 -8.38867 -8.38867 -8.38867h-56.6191v-341.813h277.226c-3.87988 11.2197 -5.7666 23.0674 -5.7666 34.916c0 61.7568 50.1182 111.666 111.771 111.666c11.9531 0.104492 23.8008 -1.8877 35.125 -5.66211v200.894
h-67.6289c-4.61328 0 -8.3877 3.77539 -8.3877 8.38867s3.77441 8.3877 8.3877 8.3877h76.2266h0.419922c4.29883 0 7.86328 -3.66992 7.75879 -7.96875v-216.831c20.3408 -10.5898 36.8027 -27.1562 47.4971 -47.4971zM400.112 -25.7168
c52.5303 0.104492 95.0996 42.6738 95.0996 95.0996c0 52.5303 -42.5693 95.0996 -95.0996 95.0996s-95.0996 -42.5693 -95.0996 -95.0996s42.5693 -95.0996 95.0996 -95.0996zM460.087 31.5312c4.61426 0 8.38867 -3.77441 8.38867 -8.3877
s-3.77441 -8.3877 -8.38867 -8.3877h-51.167v-13.4209c0 -4.61426 -3.77441 -8.38867 -8.3877 -8.38867s-8.38867 3.77441 -8.38867 8.38867v13.4209h-51.9004c-4.61328 0 -8.38867 3.77441 -8.38867 8.3877s3.77539 8.3877 8.38867 8.3877h7.86328v40.5781
c0.105469 25.583 18.7686 47.3916 44.0371 51.2715v14.0498c0 4.61328 3.77539 8.38867 8.38867 8.38867s8.3877 -3.77539 8.3877 -8.38867v-14.0498c25.0596 -4.19434 43.3037 -25.8984 42.9893 -51.2715v-40.5781h8.17773zM435.133 31.5312v40.5781
c0 19.3965 -15.7275 35.125 -35.125 35.125s-35.125 -15.7285 -35.125 -35.125v-40.5781h70.25z" />
    <glyph glyph-name="011-test" unicode="&#xf10a;" 
d="M274.827 234.089c4.1416 0 7.5 -3.35742 7.5 -7.5s-3.3584 -7.5 -7.5 -7.5h-148.172c-4.14258 0 -7.5 3.35742 -7.5 7.5s3.35645 7.5 7.5 7.5h148.172zM393.557 245.669c2.06543 -3.59082 0.828125 -8.17578 -2.7627 -10.2412l-37.9707 -21.835
c-4.82227 -2.77344 -10.9854 -2.18848 -15.1553 1.04102c-4.38965 3.40137 -6.27344 9.05859 -4.7959 14.4121l4.10352 14.877c1.10156 3.99316 5.22852 6.33789 9.22461 5.23633c3.99316 -1.10156 6.33691 -5.23145 5.23535 -9.22461l-3.22461 -11.6904l35.1064 20.1875
c3.59082 2.06445 8.17578 0.827148 10.2393 -2.7627zM274.827 176.912c4.1416 0 7.5 -3.3584 7.5 -7.5c0 -4.14355 -3.3584 -7.5 -7.5 -7.5h-148.172c-4.14355 0 -7.5 3.35742 -7.5 7.5c0 4.1416 3.35742 7.5 7.5 7.5h148.172zM393.557 188.491
c2.06543 -3.59082 0.828125 -8.17578 -2.76172 -10.2412l-37.9707 -21.835c-4.83691 -2.78125 -10.9727 -2.19922 -15.1553 1.04102c-4.39062 3.40137 -6.27441 9.05762 -4.79688 14.4121l4.10352 14.877c1.10156 3.99316 5.22852 6.33789 9.22461 5.23633
c3.99316 -1.10156 6.33789 -5.23145 5.23535 -9.22461l-3.22461 -11.6904l35.1064 20.1875c3.59082 2.06543 8.17578 0.828125 10.2393 -2.7627zM274.827 119.735c4.1416 0 7.5 -3.3584 7.5 -7.5c0 -4.14258 -3.3584 -7.5 -7.5 -7.5h-148.172
c-4.14355 0 -7.5 3.35742 -7.5 7.5c0 4.1416 3.35742 7.5 7.5 7.5h148.172zM393.557 131.314c2.06543 -3.5918 0.828125 -8.17676 -2.7627 -10.2412l-37.9707 -21.835c-4.77344 -2.74414 -10.7988 -2.33203 -15.1543 1.04102
c-4.39062 3.40137 -6.27441 9.05859 -4.79688 14.4131l4.10352 14.877c1.10156 3.99219 5.22852 6.33789 9.22461 5.23535c3.99316 -1.10059 6.33789 -5.23047 5.23535 -9.22363l-3.22461 -11.6924l35.1064 20.1885c3.59082 2.06445 8.17578 0.827148 10.2393 -2.7627z
M274.827 62.5576c4.1416 0 7.5 -3.35742 7.5 -7.5c0 -4.1416 -3.3584 -7.5 -7.5 -7.5h-148.172c-4.14355 0 -7.5 3.3584 -7.5 7.5c0 4.14258 3.35742 7.5 7.5 7.5h148.172zM393.557 74.1367c2.06543 -3.59082 0.828125 -8.1748 -2.7627 -10.2393l-37.9707 -21.8359
c-4.77539 -2.74512 -10.7998 -2.33105 -15.1543 1.04102c-4.39062 3.40137 -6.27441 9.05957 -4.79688 14.4131l4.10352 14.877c1.10156 3.99316 5.22852 6.33789 9.22461 5.23535c3.99316 -1.10059 6.33691 -5.23047 5.23535 -9.22363l-3.22461 -11.6924l35.1064 20.1885
c3.59082 2.06445 8.17578 0.827148 10.2393 -2.76367zM412.992 448c17.752 0 32.1943 -14.4473 32.1943 -32.2041v-101.604c0 -4.14258 -3.35742 -7.5 -7.5 -7.5c-4.1416 0 -7.5 3.35742 -7.5 7.5v101.604c0 9.48633 -7.71289 17.2041 -17.1934 17.2041h-199.153v-95.0781
c0 -3.71289 -0.558594 -7.42969 -1.66406 -10.9746c-4.68457 -15.0312 -18.7295 -25.9736 -35.2832 -25.9736h-95.0791v-268.781c0 -4.14258 -3.3584 -7.5 -7.5 -7.5c-4.14258 0 -7.5 3.35742 -7.5 7.5v276.281c0 1.94824 0.825195 3.90918 2.19238 5.2998l132.03 132.03
c1.39062 1.38672 3.33984 2.19629 5.30273 2.19629h206.653zM198.84 337.921v84.4727l-106.42 -106.42h84.4727c11.9775 0 21.9473 10.0479 21.9473 21.9473zM437.686 291.691c4.14258 0 7.5 -3.3584 7.5 -7.5v-315.997c0 -17.752 -14.4414 -32.1943 -32.1934 -32.1943
h-313.985c-17.752 0 -32.1934 14.4424 -32.1934 32.1943v33.9971c0 4.1416 3.35742 7.5 7.5 7.5c4.1416 0 7.5 -3.3584 7.50098 -7.5v-33.9971c0 -9.48145 7.71289 -17.1943 17.1934 -17.1943h313.984c9.48047 0 17.1934 7.71289 17.1934 17.1943v315.997
c0 4.1416 3.3584 7.5 7.5 7.5z" />
    <glyph glyph-name="013-mortarboard" unicode="&#xf10c;" 
d="M360.465 4.01172c4.57422 -1.14355 7.35645 -5.77637 6.21289 -10.3506l-8.5332 -34.1328c-0.972656 -3.87402 -4.44531 -6.45996 -8.26855 -6.45996c-0.682617 0 -1.38281 0.0761719 -2.07422 0.255859c-4.57422 1.14355 -7.36328 5.76855 -6.21191 10.3506
l8.5332 34.1328c1.13477 4.56641 5.76758 7.36523 10.3418 6.2041zM256 174.934c-1.10938 0 -2.21875 0.214844 -3.25879 0.649414l-247.467 102.4c-3.19238 1.31348 -5.27441 4.42871 -5.27441 7.88477v8.5332c0 4.70996 3.82422 8.53223 8.53418 8.53223
s8.5332 -3.82227 8.5332 -8.53223v-2.83301l238.933 -98.8672l90.5908 37.4951c4.34277 1.78418 9.35254 -0.264648 11.1533 -4.625c1.7998 -4.35254 -0.265625 -9.34473 -4.61719 -11.1455l-93.8672 -38.8438c-1.04102 -0.43457 -2.15039 -0.648438 -3.25977 -0.648438z
M357.513 87.5098c2.09961 -4.22363 0.366211 -9.33496 -3.86328 -11.4248c-19.0293 -9.4043 -51.4229 -20.6172 -97.6475 -20.6172c-132.258 0 -168.576 86.9971 -170.061 90.6924c-0.401367 1.01465 -0.606445 2.08984 -0.606445 3.17383v59.7334
c0 4.70996 3.82324 8.53223 8.5332 8.53223s8.5332 -3.82227 8.5332 -8.53223v-57.958c4.91602 -10.6846 39.1084 -74.8721 145.066 -78.251v76.4756c0 4.70996 3.82324 8.5332 8.5332 8.5332s8.5332 -3.82324 8.5332 -8.5332v-76.5527
c38.2803 1.27148 65.3477 10.5898 81.5527 18.6025c4.24121 2.09082 9.34375 0.350586 11.4258 -3.87402zM384 -4.26562c4.71875 0 8.5332 -3.82324 8.5332 -8.5332v-25.6006c0 -4.70996 -3.81445 -8.53223 -8.5332 -8.53223s-8.5332 3.82227 -8.5332 8.53223v25.6006
c0 4.70996 3.81445 8.5332 8.5332 8.5332zM503.467 302.934c4.71875 0 8.5332 -3.82227 8.5332 -8.5332v-8.5332c0 -3.45605 -2.08203 -6.5791 -5.28223 -7.89355l-114.185 -46.9922v-105.851c10.4619 11.0078 15.5908 22.1611 17.0664 25.7793v58.1553
c0 4.70996 3.81445 8.53223 8.5332 8.53223s8.5332 -3.82227 8.5332 -8.53223v-59.7334c0 -0.947266 -0.162109 -1.89355 -0.46875 -2.79004c-0.383789 -1.0918 -9.16504 -25.7188 -33.6641 -44.2109v-48.4346c9.9082 -3.54297 17.0664 -12.9209 17.0664 -24.0303
c0 -14.1143 -11.4854 -25.6006 -25.5996 -25.6006s-25.5996 11.4863 -25.5996 25.6006c0 11.1104 7.15918 20.4893 17.0664 24.0303v182.878v0.00878906v27.3408l-97.3818 36.3613c-5.92188 -3.75391 -13.542 -6.08398 -22.084 -6.08398
c-19.1396 0 -34.1328 11.2471 -34.1328 25.5996s14.9932 25.5996 34.1328 25.5996s34.1328 -11.2471 34.1328 -25.5996c0 -1.90332 -0.298828 -3.72852 -0.793945 -5.50391l93.8408 -35.0381l97.9717 40.542l-225.152 93.167l-225.152 -93.167l225.152 -93.167
l86.2217 35.6699c4.35254 1.79199 9.34473 -0.264648 11.1455 -4.61719c1.80078 -4.36035 -0.264648 -9.35254 -4.625 -11.1445l-89.4814 -37.0264c-1.04102 -0.435547 -2.14941 -0.648438 -3.25977 -0.648438s-2.21875 0.213867 -3.25977 0.648438l-247.467 102.4
c-3.19238 1.31348 -5.27441 4.42871 -5.27441 7.88477s2.08203 6.5625 5.27441 7.88477l247.467 102.4c2.08984 0.862305 4.42773 0.862305 6.51855 0l247.477 -102.399c3.18262 -1.32227 5.26465 -4.42871 5.26465 -7.88477s-2.08301 -6.57129 -5.27441 -7.88477
l-114.192 -47.2578v-15.4199l102.399 42.1455v2.81641c0 4.70996 3.81445 8.53223 8.5332 8.53223zM256 311.468c10.4189 0 17.0674 5.05078 17.0674 8.5332c0 3.48145 -6.64746 8.5332 -17.0674 8.5332s-17.0674 -5.05078 -17.0674 -8.5332
c0 -3.48145 6.64844 -8.5332 17.0674 -8.5332zM384 21.334c4.70996 0 8.5332 3.83203 8.5332 8.5332c0 4.70215 -3.82324 8.5332 -8.5332 8.5332s-8.5332 -3.83105 -8.5332 -8.5332s3.82324 -8.5332 8.5332 -8.5332zM417.877 -2.19238l8.53418 -34.1328
c1.14355 -4.58203 -1.6377 -9.20801 -6.21191 -10.3506c-0.692383 -0.179688 -1.3916 -0.255859 -2.07422 -0.255859c-3.82324 0 -7.2959 2.58594 -8.26855 6.45996l-8.5332 34.1328c-1.14453 4.57422 1.6377 9.20801 6.21191 10.3506
c4.55566 1.15234 9.19922 -1.63867 10.3418 -6.2041z" />
    <glyph glyph-name="014-meeting" unicode="&#xf10d;" 
d="M472.56 271.058c19.9336 -3.23926 35.2441 -20.4463 35.2441 -41.2871v-125.901c0 -20.2705 -14.4453 -37.2168 -33.5742 -41.1201v-126.749h-16.7871v125.901h-75.541v-117.508c0 -4.63281 -3.75977 -8.39355 -8.39355 -8.39355h-50.3604
c-4.63281 0 -8.39355 3.76074 -8.39355 8.39355v134.295h-50.3604v-125.901h33.5732v-16.7871h-83.9336v16.7871h33.5732v125.901h-50.3604v-134.295c0 -4.63281 -3.76074 -8.39355 -8.39355 -8.39355h-50.3604c-4.63379 0 -8.39355 3.76074 -8.39355 8.39355v117.508
h-75.541v-125.901h-16.7871v126.749c-19.1289 3.90332 -33.5742 20.8584 -33.5742 41.1201v125.901c0 20.8408 15.3105 38.0479 35.2441 41.2871c-11.3311 10.7188 -18.457 25.8516 -18.457 42.6475c0 32.3984 26.3555 58.7539 58.7539 58.7539
c32.3994 0 58.7549 -26.3555 58.7549 -58.7539c0 -20.6143 -10.6934 -38.7529 -26.8008 -49.2363c11.0967 -7.5625 18.4072 -20.2871 18.4072 -34.6982v-58.7539h33.5732v41.9668c0 30.0322 22.6621 54.8428 51.7881 58.3008
c-11.1973 10.7021 -18.2139 25.7432 -18.2139 42.4209c0 32.3984 26.3555 58.7539 58.7539 58.7539s58.7539 -26.3555 58.7539 -58.7539c0 -16.6777 -7.0166 -31.7188 -18.2139 -42.4209c29.126 -3.45801 51.7881 -28.2686 51.7881 -58.3008v-41.9668h33.5732v58.7539
c0 14.4111 7.31055 27.1357 18.4072 34.6982c-16.1074 10.4834 -26.8008 28.6221 -26.8008 49.2363c0 32.3984 26.3555 58.7539 58.7549 58.7539c32.3984 0 58.7539 -26.3555 58.7539 -58.7539c0 -16.7959 -7.12598 -31.9287 -18.457 -42.6475zM390.295 313.705
c0 -23.1406 18.8262 -41.9678 41.9678 -41.9678c23.1406 0 41.9668 18.8271 41.9668 41.9678s-18.8262 41.9668 -41.9668 41.9668c-23.1416 0 -41.9678 -18.8262 -41.9678 -41.9668zM214.033 313.705c0 -23.1406 18.8262 -41.9678 41.9668 -41.9678
s41.9668 18.8271 41.9668 41.9678s-18.8262 41.9668 -41.9668 41.9668s-41.9668 -18.8262 -41.9668 -41.9668zM269.068 254.951h-26.1367l13.0684 -34.8496zM180.459 212.983v-41.9668h33.5742c4.63281 0 8.39258 -3.76074 8.39258 -8.39355v-33.5742h67.1484v33.5742
c0 4.63281 3.75977 8.39355 8.39258 8.39355h33.5742v41.9668c0 23.1406 -18.8262 41.9678 -41.9668 41.9678h-2.57715l-23.1328 -61.7002c-1.2334 -3.27344 -4.36426 -5.44727 -7.86426 -5.44727s-6.63086 2.17383 -7.85645 5.44727l-23.1406 61.7002h-2.57715
c-23.1406 0 -41.9668 -18.8271 -41.9668 -41.9678zM37.7705 313.705c0 -23.1406 18.8262 -41.9678 41.9668 -41.9678c23.1416 0 41.9678 18.8271 41.9678 41.9678s-18.8262 41.9668 -41.9678 41.9668c-23.1406 0 -41.9668 -18.8262 -41.9668 -41.9668zM180.459 -47.2129
v134.295c0 13.8828 -11.2979 25.1807 -25.1807 25.1807h-75.541c-4.63281 0 -8.39258 3.75977 -8.39258 8.39258v83.9346h16.7861v-75.541h117.509v25.1807h-83.9346c-4.63379 0 -8.39355 3.76074 -8.39355 8.39355v67.1475c0 13.8828 -11.2979 25.1807 -25.1807 25.1807
h-41.9668c-13.8828 0 -25.1807 -11.2979 -25.1807 -25.1807v-125.901c0 -13.8828 11.2979 -25.1807 25.1807 -25.1807h92.3281c4.63281 0 8.39258 -3.75977 8.39258 -8.39355v-117.508h33.5742zM315.694 95.4756c1.26758 6.18555 3.81055 11.9102 7.46973 16.7871h-25.1973
h-83.9336h-25.1973c3.65918 -4.87695 6.20215 -10.6016 7.46973 -16.7871h119.389zM491.017 103.869v125.901c0 13.8828 -11.2979 25.1807 -25.1807 25.1807h-41.9668c-13.8828 0 -25.1807 -11.2979 -25.1807 -25.1807v-67.1475
c0 -4.63281 -3.75977 -8.39355 -8.39355 -8.39355h-83.9346v-25.1807h117.509v75.541h16.7861v-83.9346c0 -4.63281 -3.75977 -8.39258 -8.39258 -8.39258h-75.541c-13.8828 0 -25.1807 -11.2979 -25.1807 -25.1807v-134.295h33.5742v117.508
c0 4.63379 3.75977 8.39355 8.39258 8.39355h92.3281c13.8828 0 25.1807 11.2979 25.1807 25.1807zM247.606 154.229v16.7871h16.7871v-16.7871h-16.7871zM214.033 448c4.63281 0 8.39258 -3.76074 8.39258 -8.39355v-41.9668
c0 -4.63379 -3.75977 -8.39355 -8.39258 -8.39355h-39.1729l-31.332 -23.502c-1.48633 -1.10742 -3.25684 -1.67871 -5.03613 -1.67871c-1.27637 0 -2.56836 0.293945 -3.75195 0.881836c-2.8457 1.42676 -4.6416 4.33105 -4.6416 7.51172v16.7871h-33.5742
c-4.63281 0 -8.39355 3.75977 -8.39355 8.39355v41.9668c0 4.63281 3.76074 8.39355 8.39355 8.39355h117.509zM205.64 406.033v25.1797h-100.722v-25.1797h33.5742c4.63281 0 8.39258 -3.76074 8.39258 -8.39355v-8.39355l20.1445 15.1084
c1.45215 1.09082 3.22363 1.67871 5.03613 1.67871h33.5742zM297.967 406.033v16.7861h16.7871v-16.7861h-16.7871zM331.541 406.033v16.7861h16.7871v-16.7861h-16.7871zM365.115 406.033v16.7861h16.7861v-16.7861h-16.7861z" />
    <glyph glyph-name="016-file" unicode="&#xf10f;" 
d="M337.038 347.848c0.00390625 -0.113281 0.015625 -0.226562 0.015625 -0.339844v-337.53c0 -5.52344 -4.47656 -10 -10 -10h-59.6953v-53.9766c0 -3.64062 -1.97656 -6.99219 -5.16016 -8.75391c-1.50781 -0.832031 -3.17578 -1.24609 -4.83984 -1.24609
c-1.84766 0 -3.69531 0.511719 -5.31641 1.52734l-38.085 23.8945l-38.0859 -23.8945c-3.08203 -1.93359 -6.96875 -2.03906 -10.1562 -0.277344c-3.18359 1.76172 -5.16016 5.11328 -5.16016 8.75v53.9766h-150.555c-5.52344 0 -10 4.47656 -10 10v428.022
c0 5.52344 4.47656 10 10 10h226.566c0.113281 0 0.226562 -0.0117188 0.339844 -0.015625c0.109375 -0.00390625 0.21875 -0.0117188 0.328125 -0.015625c0.429688 -0.03125 0.855469 -0.078125 1.27344 -0.160156h0.0078125
c0.425781 -0.0859375 0.835938 -0.207031 1.24219 -0.34375c0.109375 -0.0351562 0.210938 -0.0703125 0.316406 -0.109375c0.378906 -0.144531 0.753906 -0.304688 1.11328 -0.492188c0.0234375 -0.015625 0.0507812 -0.0234375 0.078125 -0.0390625
c0.378906 -0.199219 0.738281 -0.433594 1.09375 -0.6875c0.0898438 -0.0625 0.179688 -0.132812 0.269531 -0.199219c0.351562 -0.269531 0.691406 -0.550781 1.00781 -0.867188l90.4912 -90.4922c0.316406 -0.316406 0.597656 -0.65625 0.867188 -1.00781
c0.0664062 -0.0898438 0.132812 -0.175781 0.195312 -0.265625c0.253906 -0.355469 0.488281 -0.71875 0.691406 -1.10156c0.0117188 -0.0195312 0.0195312 -0.0390625 0.03125 -0.0585938c0.1875 -0.367188 0.351562 -0.746094 0.496094 -1.13281
c0.0390625 -0.101562 0.0742188 -0.203125 0.109375 -0.304688c0.136719 -0.40625 0.257812 -0.824219 0.34375 -1.24609v-0.00390625c0.0859375 -0.421875 0.128906 -0.847656 0.160156 -1.28125c0.0078125 -0.109375 0.0117188 -0.21875 0.015625 -0.328125z
M246.566 413.855v-56.3477h56.3467zM155.621 139.13c1.48438 -4.05078 3.17188 -8.64453 3.17188 -13.7383c0 -5.08984 -1.68359 -9.68359 -3.17188 -13.7344c-0.699219 -1.91016 -1.84375 -5.03516 -1.87109 -6.30859c0.78125 -0.96875 3.49219 -2.68359 5.14844 -3.73047
c3.56641 -2.25 7.60547 -4.80469 10.5312 -8.79688c2.95703 -4.03516 4.16406 -8.69531 5.22266 -12.8047c0.464844 -1.79688 1.21484 -4.69922 1.85547 -5.79688c0.355469 -0.0742188 1.08984 -0.179688 2.47656 -0.179688c1.11719 0 2.36328 0.0625 3.67969 0.128906
c1.51562 0.0742188 3.08203 0.152344 4.71094 0.152344c3.60156 0 6.50781 -0.40625 9.14453 -1.28516c4.60547 -1.53125 8.28906 -4.5 11.543 -7.11328c1.76953 -1.42969 4.71875 -3.80078 5.89453 -4.01172c1.17578 0.210938 4.12891 2.58203 5.89844 4.01172
c3.25 2.61328 6.9375 5.58203 11.543 7.11328c2.63672 0.878906 5.53906 1.28516 9.14453 1.28516c1.62891 0 3.19531 -0.078125 4.70703 -0.152344c1.32031 -0.0664062 2.56641 -0.128906 3.68359 -0.128906c1.38574 0 2.12012 0.105469 2.47559 0.179688
c0.636719 1.09766 1.39062 4.00391 1.85156 5.79688c1.0625 4.10938 2.26953 8.76953 5.22656 12.8047c2.92578 3.99219 6.96484 6.54688 10.5312 8.79688c1.65625 1.05078 4.36719 2.76172 5.14844 3.73047c-0.0273438 1.27734 -1.17188 4.39844 -1.875 6.30859
c-1.48438 4.05469 -3.16797 8.64844 -3.16797 13.7383s1.68359 9.68359 3.17188 13.7344c0.699219 1.91016 1.84375 5.03125 1.87109 6.30859c-0.78125 0.96875 -3.49219 2.67969 -5.14844 3.73047c-3.56641 2.25391 -7.60547 4.80469 -10.5312 8.79688
c-2.95703 4.03516 -4.16406 8.69531 -5.22656 12.8047c-0.460938 1.79688 -1.21094 4.69922 -1.85156 5.79688c-0.355469 0.078125 -1.08984 0.179688 -2.47559 0.179688c-1.11719 0 -2.36328 -0.0625 -3.68359 -0.128906
c-1.51172 -0.0742188 -3.07812 -0.152344 -4.70703 -0.152344c-3.60547 0 -6.50781 0.40625 -9.14453 1.28516c-4.60547 1.53125 -8.29297 4.49609 -11.543 7.11328c-1.79688 1.44531 -4.80078 3.86719 -5.94531 4.01562
c-1.04688 -0.148438 -4.05469 -2.57031 -5.85156 -4.01562c-3.25 -2.61719 -6.93359 -5.58203 -11.5391 -7.11328c-2.63672 -0.878906 -5.54297 -1.28516 -9.14453 -1.28516c-1.63281 0 -3.19531 0.078125 -4.71094 0.152344
c-1.32031 0.0664062 -2.56641 0.128906 -3.67969 0.128906c-1.38672 0 -2.125 -0.105469 -2.47656 -0.179688c-0.640625 -1.09766 -1.39062 -4 -1.85547 -5.79688c-1.0625 -4.10938 -2.26562 -8.76953 -5.22266 -12.8047
c-2.92969 -3.99219 -6.96875 -6.54688 -10.5312 -8.79688c-1.66016 -1.04688 -4.37109 -2.76172 -5.15234 -3.73047c0.0273438 -1.27734 1.17188 -4.39844 1.875 -6.30859zM247.359 -35.9209h-0.00390625v89.9922c-1.05859 0.0273438 -2.10156 0.0703125 -3.11328 0.121094
c-1.32422 0.0664062 -2.57422 0.128906 -3.70312 0.128906c-1.77344 0 -2.53125 -0.164062 -2.82812 -0.261719c-1.1875 -0.394531 -3.47656 -2.23828 -5.31641 -3.71875c-4.66797 -3.75781 -10.4766 -8.43359 -18.4375 -8.43359s-13.7695 4.67578 -18.4375 8.43359
c-1.83984 1.48047 -4.12891 3.32422 -5.32031 3.72266c-0.292969 0.0976562 -1.05078 0.261719 -2.82422 0.261719c-1.12891 0 -2.37891 -0.0625 -3.70312 -0.132812c-1.01172 -0.0507812 -2.05469 -0.0898438 -3.11719 -0.121094v-89.9922l28.0859 17.6211
c3.25 2.03516 7.38281 2.03516 10.6328 0zM267.358 19.9775h49.6953v317.53h-80.4873c-5.52344 0 -10 4.47656 -10 10v80.4922h-206.566v-408.022h140.559v42.1523c-2.97266 4.03516 -4.21875 8.82031 -5.26953 12.8828
c-0.550781 2.13281 -1.30469 5.05078 -1.98828 5.98438c-0.6875 0.933594 -3.22656 2.54297 -5.08594 3.71484c-4.91797 3.10938 -11.043 6.98047 -13.4805 14.2969c-2.40625 7.22656 0.0976562 14.0508 2.10938 19.5352c0.914062 2.48828 1.94922 5.3125 1.94922 6.85156
s-1.03516 4.35938 -1.94922 6.84766c-2.01172 5.48438 -4.51562 12.3086 -2.10938 19.5352c2.4375 7.31641 8.55859 11.1875 13.4805 14.2969c1.85547 1.17188 4.39844 2.78125 5.08594 3.71484c0.683594 0.933594 1.4375 3.85156 1.98828 5.98438
c1.4375 5.56641 3.23047 12.4961 9.35938 16.9883c4.87109 3.57031 10.5156 3.98438 14.3359 3.98438c1.62109 0 3.17969 -0.078125 4.6875 -0.152344c1.32422 -0.0703125 2.57812 -0.132812 3.70312 -0.132812c1.77344 0 2.53516 0.164062 2.82812 0.261719
c1.1875 0.394531 3.47656 2.24121 5.31641 3.72168c4.66797 3.75391 10.4805 8.42969 18.4375 8.42969c7.96094 0 13.7695 -4.67578 18.4414 -8.42969c1.83984 -1.48438 4.12891 -3.32715 5.31641 -3.72168c0.292969 -0.0976562 1.05078 -0.261719 2.82812 -0.261719
c1.125 0 2.375 0.0625 3.69922 0.128906c1.50781 0.078125 3.07031 0.15625 4.6875 0.15625c3.82324 0 9.46777 -0.414062 14.3428 -3.98438c6.125 -4.49219 7.91406 -11.4219 9.35156 -16.9883c0.550781 -2.13281 1.30469 -5.05078 1.99219 -5.98828
c0.683594 -0.929688 3.22656 -2.53906 5.08203 -3.71094c4.92188 -3.10938 11.0469 -6.98047 13.4805 -14.2969c2.40625 -7.22266 -0.0976562 -14.0508 -2.10938 -19.5352c-0.914062 -2.48828 -1.94922 -5.30859 -1.94922 -6.84766s1.03516 -4.36328 1.94922 -6.85156
c2.01172 -5.48438 4.51562 -12.3086 2.10938 -19.5312c-2.43359 -7.32031 -8.55859 -11.1914 -13.4805 -14.3008c-1.85547 -1.17188 -4.39844 -2.77734 -5.08203 -3.71484c-0.6875 -0.933594 -1.44141 -3.85156 -1.99219 -5.98438
c-1.05078 -4.0625 -2.29297 -8.84375 -5.26562 -12.8828v-42.1523zM267.358 19.9775zM58.8633 337.508c-5.51953 0 -10 4.47656 -10 10s4.47656 10 10 10h128.836c5.51953 0 10 -4.47656 10 -10s-4.48047 -10 -10 -10h-128.836zM58.8633 337.508zM279.308 307.031
c5.52344 0 10 -4.47656 10 -10s-4.47656 -10 -10 -10h-220.444c-5.52344 0 -10 4.47656 -10 10s4.47656 10 10 10h220.444zM279.308 307.031zM239.309 256.555c5.52344 0 10 -4.48047 10 -10c0 -5.52344 -4.47656 -10 -10 -10h-180.445c-5.52344 0 -10 4.47656 -10 10
c0 5.51953 4.47656 10 10 10h180.445zM239.309 256.555zM279.308 256.555c5.51172 0 10 -4.49219 10 -10s-4.48828 -10 -10 -10c-5.50781 0 -10 4.49219 -10 10s4.49219 10 10 10zM279.308 256.555z" />
    <glyph glyph-name="010-online-class" unicode="&#xf109;" 
d="M460.8 -38.4004v315.733h17.0664v-315.733c0 -14.1367 -11.4619 -25.5996 -25.5996 -25.5996h-426.667c-14.1367 0 -25.5996 11.4629 -25.5996 25.5996v392.534c0 14.1367 11.4629 25.5996 25.5996 25.5996h230.4v-17.0664h-230.4
c-4.71191 0 -8.5332 -3.82129 -8.5332 -8.5332v-42.667h238.934v-17.0664h-238.934v-332.801c0 -4.71191 3.82129 -8.5332 8.5332 -8.5332h85.334v29.1836c0.0791016 26.9004 18.0576 50.458 43.9785 57.6338l49.8877 13.5703v12.8916
c-16.1494 10.9961 -25.75 29.3213 -25.5996 48.8545v16.1123c-2.1748 0.996094 -3.5498 1.67871 -3.8125 1.80859c-2.9082 1.4502 -4.7373 4.42871 -4.7207 7.67871v51.2002l-34.1338 13.1748v-26.708l23.1006 -23.1006l-12.0674 -12.0664l-11.0332 11.0332v-13.5332
h-17.0664v13.5332l-11.0332 -11.0332l-12.0674 12.0664l23.1006 23.1006v39.1328c0.0166016 3.5166 2.1875 6.66699 5.4707 7.92969l110.934 42.667c1.9707 0.75 4.1543 0.75 6.125 0l110.933 -42.667c3.30469 -1.2666 5.48828 -4.43359 5.48828 -7.9707
c0 -3.53809 -2.18359 -6.70898 -5.48828 -7.9707l-45.7285 -17.5879v-51.2002c0 -3.2334 -1.8252 -6.19141 -4.7207 -7.6377c-0.262695 -0.103516 -1.6377 -0.8125 -3.8125 -1.80762v-16.1543c-0.0625 -19.4756 -9.61719 -37.7002 -25.6006 -48.8291v-12.917
l49.8584 -13.5625c25.9375 -7.1709 43.9248 -30.7334 44.0088 -57.6416v-29.1836h85.333c4.71289 0 8.5332 3.82129 8.5332 8.5332zM221.866 46.9336c-0.0244141 -2.4502 -1.1123 -4.7666 -2.97852 -6.35059l20.0459 -16.6914l20.0459 16.7002
c-1.86719 1.58301 -2.9502 3.89551 -2.97949 6.3418v11.0918c-11.1211 -3.4209 -23.0127 -3.4209 -34.1338 0v-11.0918zM238.934 251.129l-87.1582 -33.5293l87.1582 -33.5283l87.1582 33.5283zM235.871 166.963l-48.1377 18.5244v-39.25
c16.0752 -7.72852 33.4248 -12.4619 51.2002 -13.9707c17.7744 1.49609 35.125 6.22949 51.2002 13.9629v39.25l-48.1377 -18.5166c-1.9707 -0.75 -4.1543 -0.75 -6.125 0zM196.267 115.2c-0.0537109 -11.3125 4.4502 -22.1709 12.4922 -30.1211
c2.60352 -2.6377 5.55371 -4.9043 8.77441 -6.7334c13.1875 -7.64941 29.458 -7.67871 42.6748 -0.0751953c13.2168 7.60449 21.3711 21.6836 21.3916 36.9297v9.1582c-13.6201 -5.37891 -28.0371 -8.47461 -42.666 -9.1582
c-14.6299 0.683594 -29.0459 3.7793 -42.667 9.1582v-9.1582zM128 -17.75v-29.1836h25.5996v34.1338h17.0674v-34.1338h136.533v34.1338h17.0664v-34.1338h25.5996v29.1836c-0.0703125 19.2246 -12.9248 36.0586 -31.4541 41.1836l-40.2246 10.9375l-33.792 -28.1582
c-3.16602 -2.6377 -7.75781 -2.6377 -10.9248 0l-33.792 28.1582l-40.25 -10.9463c-18.5205 -5.12891 -31.3662 -21.958 -31.4287 -41.1748zM128 -17.75zM51.2002 345.6h17.0664v-17.0664h-17.0664v17.0664zM51.2002 345.6zM85.333 345.6h17.0674v-17.0664h-17.0674v17.0664
zM85.333 345.6zM119.467 345.6h17.0664v-17.0664h-17.0664v17.0664zM119.467 345.6zM469.333 448c14.1377 0 25.6006 -11.4629 25.6006 -25.5996v-102.4c0 -14.1377 -11.4629 -25.5996 -25.6006 -25.5996h-98.3037l-31.5664 -39.4668
c-1.61719 -2.02539 -4.07129 -3.2002 -6.66309 -3.2002c-0.961914 0.00390625 -1.91602 0.166992 -2.8252 0.479492c-3.4209 1.19922 -5.70801 4.42871 -5.70801 8.05371v34.1338h-25.5996c-14.1377 0 -25.6006 11.4619 -25.6006 25.5996v102.4
c0 14.1367 11.4629 25.5996 25.6006 25.5996h170.666zM477.866 320v102.4c0 4.71191 -3.82031 8.5332 -8.5332 8.5332h-170.666c-4.71289 0 -8.5332 -3.82129 -8.5332 -8.5332v-102.4c0 -4.71289 3.82031 -8.5332 8.5332 -8.5332h34.1328
c4.71289 0 8.5332 -3.82129 8.5332 -8.5332v-18.3379l18.9375 23.6709c1.61719 2.02539 4.07129 3.2002 6.66309 3.2002h102.399c4.71289 0 8.5332 3.82031 8.5332 8.5332zM477.866 320zM324.267 413.866h119.467v-17.0664h-119.467v17.0664zM324.267 413.866z
M324.267 379.733h119.467v-17.0664h-119.467v17.0664zM324.267 379.733zM324.267 345.6h119.467v-17.0664h-119.467v17.0664zM324.267 345.6z" />
    <glyph glyph-name="006-new-file" unicode="&#xf105;" 
d="M355.168 409.165c0.00390625 0.00195312 0.0078125 0.0078125 0.00976562 0.00976562c0.000976562 0.000976562 0.00488281 0.00292969 0.00878906 0.00683594l35.5547 35.5557c2.08887 2.08984 4.9209 3.2627 7.87402 3.2627
c2.95508 0 5.78613 -1.17285 7.87598 -3.2627l43.2207 -43.2275c4.34961 -4.34668 4.34961 -11.3984 -0.000976562 -15.7471l-35.5576 -35.5576c-0.00195312 -0.000976562 -0.00488281 -0.00683594 -0.00683594 -0.00878906s-0.00585938 -0.00390625 -0.00976562 -0.0078125
l-176.62 -176.62c-1.40137 -1.40137 -3.1543 -2.40625 -5.0752 -2.90527l-58.3838 -15.1611c-0.926758 -0.239258 -1.86621 -0.356445 -2.7998 -0.356445c-2.91602 0 -5.75781 1.14746 -7.87402 3.26172c-2.79102 2.79297 -3.89551 6.85254 -2.9043 10.6748l15.1592 58.3838
c0.49707 1.9209 1.50195 3.67188 2.90527 5.0752zM223.912 191.462l166.612 166.612l-27.4736 27.4746l-166.613 -166.614l-9.63574 -37.1104zM398.615 421.113l-19.8145 -19.8145l27.4736 -27.4756l19.8145 19.8154zM441.839 327.308
c6.15137 0 11.1367 -4.9873 11.1367 -11.1367v-369.034c0 -6.14941 -4.9873 -11.1367 -11.1367 -11.1367h-371.678c-6.14941 0 -11.1367 4.9873 -11.1367 11.1367v448.116c0 6.14941 4.9873 11.1367 11.1367 11.1367h217.29c6.14941 0 11.1367 -4.9873 11.1367 -11.1367
s-4.9873 -11.1367 -11.1367 -11.1367h-206.152v-425.84h349.402v357.895c0 6.14941 4.9873 11.1367 11.1377 11.1367z" />
    <glyph glyph-name="002-approve-invoice" unicode="&#xf101;" 
d="M454.748 448c17.1172 0 31.043 -13.9268 31.043 -31.043v-395.237c0 -2.90039 -1.15234 -5.68164 -3.20215 -7.73145l-74.7871 -74.7881c-2.05176 -2.05078 -4.83203 -3.20215 -7.73145 -3.20215h-244.427c-17.1172 0 -31.043 13.9258 -31.043 31.043v119.523
c-56.7412 16.2373 -98.3916 68.5762 -98.3916 130.462c0 61.8848 41.6514 114.224 98.3916 130.462v69.4688c0 17.1162 13.9258 31.043 31.043 31.043h299.104zM155.644 426.133c-5.05957 0 -9.17578 -4.11621 -9.17578 -9.17578v-32.998h317.456v32.998
c0 5.05957 -4.11719 9.17578 -9.17578 9.17578h-299.104zM48.0762 217.027c0 -62.752 51.0518 -113.805 113.804 -113.805s113.803 51.0527 113.803 113.805c0 62.751 -51.0508 113.803 -113.803 113.803s-113.804 -51.0518 -113.804 -113.803zM146.468 -32.958
c0 -5.05957 4.11621 -9.1748 9.17578 -9.1748h233.491v43.7461c0 17.1152 13.9238 31.042 31.042 31.042h43.7432v329.437h-317.455v-10.2744c5.06055 0.575195 10.2012 0.880859 15.4131 0.880859c41.5352 0 78.7637 -18.7676 103.669 -48.2607h65.5752
c6.03809 0 10.9336 -4.89551 10.9336 -10.9336s-4.89551 -10.9336 -10.9336 -10.9336h-50.4912c9.23242 -16.6592 15.0635 -35.4531 16.543 -55.4395h33.9492c6.03809 0 10.9336 -4.89551 10.9336 -10.9336c0 -6.03906 -4.89551 -10.9336 -10.9336 -10.9336h-34.0879
c-1.72852 -20.0312 -7.82129 -38.832 -17.332 -55.4404h51.4209c6.03809 0 10.9336 -4.89551 10.9336 -10.9336c0 -6.03906 -4.89551 -10.9336 -10.9336 -10.9336h-66.9932c-24.8896 -28.5371 -61.499 -46.6006 -102.25 -46.6006
c-5.21191 0 -10.3525 0.306641 -15.4131 0.880859v-115.194zM411.005 -26.6699l37.4561 37.457h-28.2812c-5.05859 0 -9.1748 -4.11523 -9.1748 -9.1748v-28.2822zM374.081 282.57c-6.03809 0 -10.9336 4.89551 -10.9336 10.9336s4.89551 10.9336 10.9336 10.9336h36.3105
c6.03809 0 10.9336 -4.89551 10.9336 -10.9336s-4.89551 -10.9336 -10.9336 -10.9336h-36.3105zM374.081 205.264c-6.03809 0 -10.9336 4.89453 -10.9336 10.9336c0 6.03809 4.89551 10.9336 10.9336 10.9336h36.3105c6.03809 0 10.9336 -4.89551 10.9336 -10.9336
c0 -6.03906 -4.89551 -10.9336 -10.9336 -10.9336h-36.3105zM374.081 127.956c-6.03809 0 -10.9336 4.89453 -10.9336 10.9336c0 6.03809 4.89551 10.9336 10.9336 10.9336h36.3105c6.03809 0 10.9336 -4.89551 10.9336 -10.9336
c0 -6.03906 -4.89551 -10.9336 -10.9336 -10.9336h-36.3105zM410.392 50.6484h-102.281c-6.03906 0 -10.9336 4.89551 -10.9336 10.9336c0 6.03906 4.89453 10.9336 10.9336 10.9336h102.281c6.03809 0 10.9336 -4.89453 10.9336 -10.9336
c0 -6.03809 -4.89551 -10.9336 -10.9336 -10.9336zM246.769 272.183c7.41504 -7.41504 7.41504 -19.4814 0.000976562 -26.8965l-96.7539 -96.7549c-3.59082 -3.59082 -8.36719 -5.56934 -13.4463 -5.56934h-0.000976562c-5.08105 0 -9.85742 1.97852 -13.4492 5.57227
l-46.127 46.125c-7.41504 7.41504 -7.41504 19.4805 -0.000976562 26.8955l13.3418 13.3408c3.5918 3.5918 8.36816 5.57031 13.4473 5.57031c5.08008 0 9.85645 -1.97852 13.4482 -5.56934l19.3398 -19.3398l69.9648 69.9648
c3.5918 3.5918 8.36719 5.56934 13.4482 5.56934c5.08008 0 9.85547 -1.97754 13.4482 -5.56934zM136.567 166.01l92.7246 92.7246l-9.31055 9.31055l-75.6826 -75.6816c-4.27051 -4.27051 -11.1934 -4.27051 -15.4639 0l-25.0557 25.0557l-9.31055 -9.31152z" />
    <glyph glyph-name="004-implement" unicode="&#xf103;" 
d="M42.667 -64c-23.5547 0.0292969 -42.6377 19.1123 -42.667 42.667v332.8c0.0292969 23.5537 19.1123 42.6377 42.667 42.667h17.0664c4.71289 0 8.5332 -3.82129 8.5332 -8.53418v-59.7334h136.533v-17.0664h-136.533v-256c0 -4.71191 -3.82031 -8.5332 -8.5332 -8.5332
h-17.0664c-14.1377 0 -25.6006 -11.4629 -25.6006 -25.5996c0 -14.1377 11.4629 -25.6006 25.6006 -25.6006h375.467v213.334h17.0664v-221.867c0 -4.71191 -3.82129 -8.5332 -8.5332 -8.5332h-384zM17.0664 277.333v-264.533c7.37988 5.5498 16.3672 8.5459 25.6006 8.5332
h8.5332v315.733h-8.5332c-14.1377 0 -25.6006 -11.4619 -25.6006 -25.5996v-34.1338zM17.0664 277.333zM196.267 243.2c4.71289 0 8.5332 -3.82129 8.5332 -8.5332v-25.6006h34.1338v-17.0664h-34.1338v-25.5996c0 -4.71289 -3.82031 -8.53418 -8.5332 -8.53418h-102.4
c-4.71191 0 -8.5332 3.82129 -8.5332 8.53418v68.2666c0 4.71191 3.82129 8.5332 8.5332 8.5332h102.4zM187.733 174.934v51.2002h-85.333v-51.2002h85.333zM187.733 174.934zM281.6 4.2666c-4.71191 0 -8.5332 3.82129 -8.5332 8.5332v25.6006h-68.2666v-25.6006
c0 -4.71191 -3.82031 -8.5332 -8.5332 -8.5332h-102.4c-4.71191 0 -8.5332 3.82129 -8.5332 8.5332v68.2666c0 4.71289 3.82129 8.5332 8.5332 8.5332h102.4c4.71289 0 8.5332 -3.82031 8.5332 -8.5332v-25.5996h68.2666v25.5996c0 4.71289 3.82129 8.5332 8.5332 8.5332
h42.667v51.2002h17.0664v-51.2002h42.667c4.71289 0 8.5332 -3.82031 8.5332 -8.5332v-68.2666c0 -4.71191 -3.82031 -8.5332 -8.5332 -8.5332h-102.4zM290.134 72.5332v-51.2002h85.333v51.2002h-85.333zM187.733 21.333v51.2002h-85.333v-51.2002h85.333zM187.733 21.333z
M366.934 379.733c42.3955 -0.0458984 76.7539 -34.4043 76.7998 -76.7998c0 -42.417 -34.3838 -76.7998 -76.7998 -76.7998c-42.417 0 -76.7998 34.3828 -76.7998 76.7998c0 42.416 34.3828 76.7998 76.7998 76.7998zM366.934 243.2
c32.9746 0.0371094 59.6953 26.7578 59.7334 59.7334c0 32.9912 -26.7422 59.7334 -59.7334 59.7334c-32.9922 0 -59.7334 -26.7422 -59.7334 -59.7334c0 -32.9922 26.7412 -59.7334 59.7334 -59.7334zM366.934 243.2zM503.467 268.8h-31.0879
c-1.82031 -5.5957 -4.0791 -11.0459 -6.75 -16.291l22.0166 -21.9375c1.6084 -1.60059 2.5127 -3.77539 2.5127 -6.0459c0 -2.27148 -0.904297 -4.44629 -2.5127 -6.0459l-36.2666 -36.1836c-3.33301 -3.3252 -8.72461 -3.3252 -12.0576 0l-21.9463 21.9414
c-5.25391 -2.6709 -10.7041 -4.9248 -16.3086 -6.75v-31.0869c0 -4.71289 -3.82031 -8.53418 -8.5332 -8.53418h-51.2002c-4.71191 0 -8.5332 3.82129 -8.5332 8.53418v31.0869c-5.6084 1.8252 -11.0703 4.0791 -16.333 6.75l-21.9463 -21.9414
c-3.33301 -3.3291 -8.7334 -3.3291 -12.0664 0l-36.2334 36.1748c-1.6084 1.60059 -2.5127 3.77539 -2.5127 6.0459c0 2.2666 0.904297 4.44629 2.5127 6.0459l22.0166 21.9375c-2.6709 5.25 -4.92871 10.7002 -6.75 16.2998h-31.0869
c-4.71289 0 -8.53418 3.82129 -8.53418 8.5332v51.2002c0 4.71289 3.82129 8.5332 8.53418 8.5332h31.0869c1.81641 5.6084 4.07129 11.0674 6.74219 16.3252l-22.0166 21.9375c-1.60449 1.59961 -2.50879 3.77539 -2.50879 6.04199s0.904297 4.44141 2.50879 6.04102
l36.2744 36.2422c1.60059 1.59961 3.77148 2.5 6.0332 2.5c2.2627 -0.00390625 4.43359 -0.904297 6.0332 -2.50879l21.9463 -22.0166c5.25 2.6709 10.7002 4.9248 16.2998 6.75v31.0879c0 4.71191 3.82129 8.5332 8.5332 8.5332h51.2002
c4.71289 0 8.5332 -3.82129 8.5332 -8.5332v-31.0879c5.60059 -1.8252 11.0498 -4.0791 16.2998 -6.75l21.9795 22.0166c1.60059 1.60449 3.77051 2.50488 6.0332 2.50879c2.2627 0 4.43359 -0.900391 6.0332 -2.5l36.2334 -36.2666
c1.60449 -1.60059 2.50879 -3.77539 2.50879 -6.04199s-0.904297 -4.44141 -2.50879 -6.04199l-22.0166 -21.9375c2.6709 -5.25 4.92969 -10.6992 6.75 -16.2998h31.0879c4.71191 0 8.5332 -3.82031 8.5332 -8.5332v-51.2002c0 -4.71191 -3.82129 -8.5332 -8.5332 -8.5332z
M457.763 279.509c0.987305 3.74512 4.37109 6.35352 8.24121 6.35742h28.9297v34.1338h-28.9297c-3.8584 0.0126953 -7.22852 2.61621 -8.2168 6.34961c-2.24512 8.49609 -5.625 16.6504 -10.0498 24.2422c-1.95801 3.35449 -1.4043 7.60449 1.3457 10.3418l20.4795 20.4209
l-24.1836 24.1826l-20.4209 -20.4785c-2.74121 -2.75879 -7 -3.3125 -10.3584 -1.35059c-7.58691 4.42969 -15.7451 7.80859 -24.2412 10.0459c-3.74609 0.987305 -6.3584 4.375 -6.3584 8.25v28.9297h-34.1338v-28.9297
c-0.00390625 -3.86621 -2.60742 -7.25 -6.34961 -8.24121c-8.49609 -2.2373 -16.6543 -5.61719 -24.2412 -10.0459c-3.35449 -1.9541 -7.60449 -1.40039 -10.3418 1.34961l-20.4209 20.4795l-24.1836 -24.1836l20.4795 -20.4209
c2.75 -2.7373 3.30371 -6.9873 1.34961 -10.3418c-4.42871 -7.59082 -7.80859 -15.7451 -10.0537 -24.2412c-0.988281 -3.74609 -4.37109 -6.35449 -8.24219 -6.3584h-28.9287v-34.1338h28.9287c3.875 0 7.2627 -2.6123 8.25 -6.35742
c2.24609 -8.49609 5.625 -16.6504 10.0547 -24.2422c1.9541 -3.35449 1.39941 -7.60449 -1.35059 -10.3418l-20.4785 -20.4121l24.1748 -24.1172l20.4209 20.4209c2.7373 2.74219 6.9834 3.29199 10.333 1.3418c7.58789 -4.42871 15.7461 -7.80859 24.2422 -10.0459
c3.74512 -0.987305 6.35742 -4.375 6.35742 -8.25v-28.9287h34.1338v28.9287c0.00390625 3.87891 2.625 7.27148 6.38379 8.25c8.49512 2.2373 16.6533 5.61719 24.2412 10.0459c3.34961 1.9502 7.5957 1.40039 10.333 -1.3418l20.4043 -20.4287l24.1748 24.125
l-20.4785 20.4121c-2.75 2.7373 -3.30469 6.9873 -1.35059 10.3418c4.42969 7.5918 7.80859 15.7461 10.0547 24.2422zM457.763 279.509zM366.934 337.066c18.8496 0 34.1328 -15.2832 34.1328 -34.1328c0 -18.8506 -15.2832 -34.1338 -34.1328 -34.1338
c-18.8506 0 -34.1338 15.2832 -34.1338 34.1338c0 18.8496 15.2832 34.1328 34.1338 34.1328zM366.934 285.866c9.4248 0 17.0664 7.64258 17.0664 17.0674s-7.6416 17.0664 -17.0664 17.0664s-17.0674 -7.6416 -17.0674 -17.0664s7.64258 -17.0674 17.0674 -17.0674z
M366.934 285.866z" />
    <glyph glyph-name="015-student" unicode="&#xf10e;" 
d="M419.598 -3.91406c-4.18359 0 -7.57422 3.39062 -7.57422 7.57422v4.73828c0 32.7734 -22.0469 61.7812 -53.6172 70.5391l-49.9492 13.8789l-28.0664 -88.9102c-0.347656 -1.10156 -0.941406 -2.10547 -1.73438 -2.94141l-47.4062 -49.8164h104.023v23.7305
c0 4.18359 3.39062 7.57422 7.57422 7.57422s7.57422 -3.39062 7.57422 -7.57422v-23.7305h61.6016v17.2305c0 4.18359 3.39062 7.57422 7.57422 7.57422s7.57422 -3.39062 7.57422 -7.57422v-24.8047c0 -4.18359 -3.39062 -7.57422 -7.57422 -7.57422h-412.023
c-4.18359 0 -7.57422 3.39062 -7.57422 7.57422v24.8047c0 4.18359 3.39062 7.57422 7.57422 7.57422s7.57422 -3.39062 7.57422 -7.57422v-17.2305h61.6016v23.7305c0 4.18359 3.39062 7.57422 7.57422 7.57422s7.57422 -3.39062 7.57422 -7.57422v-23.7344h104.023
l-47.4062 49.8164c-0.792969 0.835938 -1.38672 1.84375 -1.73438 2.94141l-28.0664 88.9102l-49.9453 -13.875c-31.5742 -8.76172 -53.6211 -37.7695 -53.6211 -70.543v-4.73438c0 -4.18359 -3.39062 -7.57422 -7.57422 -7.57422s-7.57422 3.39062 -7.57422 7.57422
v4.73438c0 39.5547 26.6133 74.5664 64.7148 85.1406l82.9336 23.0391l22.0078 22.0117v32.5156c-27.9805 13.3281 -49.0078 38.9688 -56.0273 69.875h-10.1172c-15.3125 0 -27.7734 12.4609 -27.7734 27.7734v14.1367c0 8.125 3.50781 15.4492 9.08984 20.5312v78.8789
c0 4.18359 3.39062 7.57422 7.57422 7.57422s7.57422 -3.39062 7.57422 -7.57422v-38.3125h227.219v88.8672h-227.219v-15.1914c0 -4.17969 -3.39062 -7.57031 -7.57422 -7.57031s-7.57422 3.39062 -7.57422 7.57031v15.1914h-57.0586
c-4.17969 0 -7.57422 3.39062 -7.57422 7.57422s3.39453 7.57422 7.57422 7.57422h371.633c4.18359 0 7.57031 -3.39062 7.57031 -7.57422s-3.39062 -7.57422 -7.57422 -7.57422h-7.57422v-73.8477c10.5156 -3.24219 18.1797 -13.0508 18.1797 -24.6133
s-7.66406 -21.3711 -18.1797 -24.6133v-18.8086c0 -4.18359 -3.39062 -7.57422 -7.57031 -7.57422c-4.18359 0 -7.57422 3.39062 -7.57422 7.57422v18.8086c-10.5156 3.24219 -18.1797 13.0508 -18.1797 24.6133s7.66406 21.3711 18.1797 24.6133v73.8477h-34.3359v-129.434
c5.58203 -5.08203 9.08984 -12.4023 9.08984 -20.5273v-14.1406c0 -15.3125 -12.4609 -27.7695 -27.7734 -27.7695h-10.1133c-7.02344 -30.9062 -28.0508 -56.5469 -56.0312 -69.875v-32.5195l22.0078 -22.0078l82.9336 -23.043
c38.1016 -10.5742 64.7148 -45.5859 64.7148 -85.1367v-4.73828c0 -4.18359 -3.39062 -7.57422 -7.57422 -7.57422zM384.254 323.785c5.84375 0 10.6016 4.75781 10.6016 10.6055s-4.75391 10.6055 -10.6016 10.6055s-10.6055 -4.75781 -10.6055 -10.6055
s4.75781 -10.6055 10.6055 -10.6055zM200.609 29.918l-10.2031 -51l23.1797 -24.3555l23.1797 24.3555l-10.2031 51h-25.9531zM229.316 45.0664l12.8047 14.7773l-28.5352 28.5391l-28.5391 -28.5391l12.8086 -14.7773h31.4609zM249.992 73.3984l15.6719 35.6172
l-15.7227 15.7188l-25.6445 -25.6406zM336.285 268.75v14.1367c0 6.96094 -5.66406 12.625 -12.625 12.625h-7.57422v-39.3828h7.57422c6.96094 0 12.625 5.66016 12.625 12.6211zM327.195 310.426v18.4102h-11.1094v-18.1758h7.57422
c1.19922 0 2.375 -0.0859375 3.53516 -0.234375zM99.9766 328.836v-18.4102c1.16016 0.148438 2.33594 0.230469 3.53516 0.230469h7.57422v18.1797h-11.1094zM111.086 256.125v39.3867h-7.57422c-6.96094 0 -12.625 -5.66406 -12.625 -12.625v-14.1367
c0 -6.96094 5.66406 -12.625 12.625 -12.625h7.57422zM126.234 263.699c0 -48.1641 39.1836 -87.3516 87.3516 -87.3516s87.3516 39.1836 87.3516 87.3516v65.1367h-174.703v-65.1367zM213.586 161.199c-9.98828 0 -19.6445 1.44141 -28.7812 4.12109v-26.7344
l28.7812 -28.7812l28.7812 28.7812v26.7305c-9.13672 -2.67578 -18.793 -4.11719 -28.7812 -4.11719zM177.23 124.738l-15.7227 -15.7227l15.6719 -35.6172l25.6953 25.6953zM133.32 96.875l27.3789 -86.7383l16.9453 -17.8047l8.59766 43.0039l-17.2578 19.918
c-0.0546875 0.0625 -0.101562 0.128906 -0.152344 0.191406c-0.0664062 0.0820312 -0.132812 0.164062 -0.195312 0.25c-0.121094 0.164062 -0.234375 0.328125 -0.339844 0.496094c-0.0429688 0.0703125 -0.0898438 0.136719 -0.128906 0.207031
c-0.15625 0.265625 -0.296875 0.539062 -0.417969 0.816406l-19.3008 43.8633zM266.473 10.1367l27.3789 86.7383l-15.1289 4.20312l-19.3008 -43.8633c-0.121094 -0.277344 -0.261719 -0.546875 -0.414062 -0.8125
c-0.0429688 -0.0742188 -0.0898438 -0.140625 -0.132812 -0.210938c-0.105469 -0.167969 -0.21875 -0.332031 -0.335938 -0.492188c-0.0664062 -0.0859375 -0.132812 -0.171875 -0.199219 -0.253906c-0.0507812 -0.0625 -0.0976562 -0.128906 -0.152344 -0.191406
l-17.2578 -19.918l8.59766 -43.0039zM266.473 10.1367z" />
    <glyph glyph-name="018-books" unicode="&#xf111;" 
d="M366.933 277.333c4.71094 0 8.5332 -3.82324 8.5332 -8.5332s-3.82324 -8.5332 -8.5332 -8.5332h-17.0664c-4.70996 0 -8.5332 3.82324 -8.5332 8.5332s3.82324 8.5332 8.5332 8.5332h17.0664zM366.933 243.2c4.71094 0 8.53418 -3.82324 8.5332 -8.5332
c0 -4.70996 -3.82324 -8.5332 -8.5332 -8.5332h-17.0664c-4.70996 0 -8.5332 3.82324 -8.5332 8.5332s3.82324 8.5332 8.5332 8.5332h17.0664zM366.933 311.467c4.71094 0 8.53418 -3.82324 8.5332 -8.5332c0 -4.70996 -3.82324 -8.53223 -8.5332 -8.53223h-17.0664
c-4.70996 0 -8.5332 3.82227 -8.5332 8.53223s3.82324 8.5332 8.5332 8.5332h17.0664zM366.933 38.4004c4.71094 0 8.5332 -3.82324 8.5332 -8.5332s-3.82324 -8.5332 -8.5332 -8.5332h-17.0664c-4.70996 0 -8.5332 3.82324 -8.5332 8.5332s3.82324 8.5332 8.5332 8.5332
h17.0664zM179.2 311.467c4.70996 0 8.5332 -3.82324 8.5332 -8.53418v-119.466c0 -4.70996 -3.82324 -8.5332 -8.5332 -8.5332h-51.2002c-4.70996 0 -8.5332 3.82324 -8.5332 8.5332v119.467c0 4.70996 3.82324 8.5332 8.5332 8.5332h51.2002zM170.667 192v102.4h-34.1328
v-102.4h34.1328zM179.2 38.4004c4.70996 0 8.5332 -3.82324 8.5332 -8.5332s-3.82324 -8.5332 -8.5332 -8.5332h-51.2002c-4.70996 0 -8.5332 3.82324 -8.5332 8.5332s3.82324 8.5332 8.5332 8.5332h51.2002zM179.2 4.2666c4.70996 0 8.5332 -3.82227 8.5332 -8.53223
s-3.82324 -8.5332 -8.5332 -8.5332h-51.2002c-4.70996 0 -8.5332 3.82324 -8.5332 8.5332s3.82324 8.53223 8.5332 8.53223h51.2002zM366.933 4.2666c4.71094 0 8.53418 -3.82227 8.5332 -8.53223c0 -4.70996 -3.82324 -8.5332 -8.5332 -8.5332h-17.0664
c-4.70996 0 -8.5332 3.82324 -8.5332 8.5332s3.82324 8.53223 8.5332 8.53223h17.0664zM469.333 4.2666c4.71094 0 8.53418 -3.82227 8.5332 -8.53223c0 -4.70996 -3.82324 -8.5332 -8.5332 -8.5332h-34.1328c-4.70996 0 -8.5332 3.82324 -8.5332 8.5332
s3.82324 8.53223 8.5332 8.53223h34.1328zM290.133 302.933v-119.467c0 -4.70996 -3.82324 -8.5332 -8.5332 -8.5332h-34.1328c-4.70996 0 -8.5332 3.82324 -8.5332 8.5332v119.467c0 4.70996 3.82324 8.5332 8.5332 8.5332h34.1328
c4.70996 0 8.5332 -3.82324 8.5332 -8.5332zM273.067 192v102.4h-17.0674v-102.4h17.0674zM469.333 38.4004c4.71094 0 8.5332 -3.82324 8.5332 -8.5332s-3.82324 -8.5332 -8.5332 -8.5332h-34.1328c-4.70996 0 -8.5332 3.82324 -8.5332 8.5332
s3.82324 8.5332 8.5332 8.5332h34.1328zM281.6 4.2666c4.70996 0 8.5332 -3.82227 8.5332 -8.53223s-3.82324 -8.5332 -8.5332 -8.5332h-34.1328c-4.70996 0 -8.5332 3.82324 -8.5332 8.5332s3.82324 8.53223 8.5332 8.53223h34.1328zM435.2 140.8
c-4.70996 0 -8.5332 3.82324 -8.5332 8.5332v85.333c0 4.70996 3.82324 8.5332 8.5332 8.5332s8.5332 -3.82324 8.5332 -8.5332v-85.333c0 -4.70996 -3.82324 -8.5332 -8.5332 -8.5332zM477.867 234.667v-85.333c0 -4.70996 -3.82324 -8.5332 -8.5332 -8.5332
s-8.5332 3.82324 -8.5332 8.5332v85.333c0 4.70996 3.82324 8.5332 8.5332 8.5332s8.5332 -3.82324 8.5332 -8.5332zM486.4 379.733c14.1133 0 25.5996 -11.4863 25.5996 -25.6006v-392.533c0 -14.1133 -11.4863 -25.5996 -25.5996 -25.5996h-460.801
c-14.1133 0 -25.5996 11.4863 -25.5996 25.5996v409.601c0 14.1143 11.4863 25.5996 25.5996 25.5996h34.1338c4.71094 0 8.53223 -3.82422 8.53223 -8.53418s-3.82227 -8.53223 -8.53223 -8.53223h-34.1338c-4.70117 0 -8.53223 -3.83105 -8.53223 -8.5332v-409.601
c0 -4.70117 3.83105 -8.53223 8.53223 -8.53223h59.7344v375.467h-42.667c-4.70996 0 -8.5332 3.82324 -8.5332 8.5332s3.82324 8.53223 8.5332 8.53223h42.667v76.8008c0 14.1133 11.4863 25.5996 25.5996 25.5996h85.333c14.3535 0 25.6006 -11.2471 25.6006 -25.5996
v-8.53418h59.7324c4.70996 0 8.5332 -3.82324 8.5332 -8.5332s-3.82324 -8.5332 -8.5332 -8.5332h-59.7324v-443.733h85.333v452.267c0 14.1143 11.4854 25.5996 25.5996 25.5996h51.2002c14.3525 0 25.5996 -11.2471 25.5996 -25.5996v-76.7998h51.2002
c4.70996 0 8.5332 -3.82324 8.5332 -8.5332s-3.82324 -8.5332 -8.5332 -8.5332h-51.2002v-358.399h76.8008c4.70117 0 8.53223 3.83105 8.53223 8.53223v392.534c0 4.70215 -3.83105 8.5332 -8.53223 8.5332h-51.2002c-4.70996 0 -8.5332 3.82324 -8.5332 8.5332
s3.82324 8.5332 8.5332 8.5332h51.2002zM204.8 -46.9326h-0.000976562v469.333c0 4.86328 -3.66895 8.53223 -8.5332 8.53223h-85.333c-4.78613 0 -8.53223 -3.74609 -8.53223 -8.53223v-25.6006h76.7998c4.70996 0 8.5332 -3.82422 8.5332 -8.53418
s-3.82324 -8.53223 -8.5332 -8.53223h-76.7998v-426.666h102.399zM392.533 -46.9326v452.266c0 4.86426 -3.66895 8.5332 -8.5332 8.5332h-51.2012c-4.78711 0 -8.5332 -3.74609 -8.5332 -8.5332v-25.5996h42.667c4.70996 0 8.5332 -3.82324 8.5332 -8.5332
s-3.82324 -8.5332 -8.5332 -8.5332h-42.667v-409.6h68.2676zM59.7334 38.4004c4.71094 0 8.5332 -3.82324 8.5332 -8.5332s-3.82227 -8.5332 -8.53223 -8.5332h-17.0674c-4.70996 0 -8.5332 3.82324 -8.5332 8.5332s3.82324 8.5332 8.5332 8.5332h17.0664zM59.7334 4.2666
c4.71094 0 8.5332 -3.82227 8.5332 -8.53223s-3.82227 -8.5332 -8.53223 -8.5332h-17.0674c-4.70996 0 -8.5332 3.82324 -8.5332 8.5332s3.82324 8.53223 8.5332 8.53223h17.0664zM281.6 38.4004c4.70996 0 8.5332 -3.82324 8.5332 -8.5332
s-3.82324 -8.5332 -8.5332 -8.5332h-34.1328c-4.70996 0 -8.5332 3.82324 -8.5332 8.5332s3.82324 8.5332 8.5332 8.5332h34.1328zM59.7334 243.2c4.71094 0 8.5332 -3.82324 8.5332 -8.5332s-3.82227 -8.5332 -8.53223 -8.5332h-17.0674
c-4.70996 0 -8.5332 3.82324 -8.5332 8.5332s3.82324 8.5332 8.5332 8.5332h17.0664zM59.7334 209.067c4.71094 0 8.5332 -3.82422 8.5332 -8.53418s-3.82227 -8.5332 -8.53223 -8.5332h-17.0674c-4.71094 0 -8.5332 3.82422 -8.5332 8.53418s3.82324 8.5332 8.5332 8.5332
h17.0664z" />
    <glyph glyph-name="007-education" unicode="&#xf106;" 
d="M330.528 90.168c-1.39355 1.30859 -2.52441 3.9209 -2.52441 5.83203c0 1.74609 0.969727 4.19824 2.16406 5.47168l120 128c1.31738 1.48145 3.99512 2.68262 5.97754 2.68262c4.41602 0 8 -3.58398 8 -8c0 -1.81543 -1.03711 -4.33594 -2.31348 -5.62598l-120 -128
c-1.30859 -1.39355 -3.9209 -2.52441 -5.83203 -2.52441c-1.74609 0 -4.19824 0.969727 -5.47168 2.16406zM138.168 90.5283l-120 128c-1.27637 1.29004 -2.31348 3.81055 -2.31348 5.62598c0 4.41602 3.58398 8 8 8c1.98242 0 4.66016 -1.20117 5.97754 -2.68262l120 -128
c1.27637 -1.29004 2.31348 -3.81055 2.31348 -5.62598c0 -4.41602 -3.58398 -8 -8 -8c-1.98242 0 -4.66016 1.20117 -5.97754 2.68262zM426.344 133.656c1.28418 1.23926 3.77344 2.24512 5.55762 2.24512c4.41602 0 8 -3.58398 8 -8
c0 -1.78418 -1.00586 -4.27344 -2.24512 -5.55762l-40 -40c-1.30273 -1.34766 -3.87988 -2.44238 -5.75488 -2.44238c-4.41602 0 -8 3.58398 -8 8c0 1.875 1.09473 4.45215 2.44238 5.75488zM42.3438 133.656c1.29395 1.29297 3.82715 2.3418 5.65625 2.3418
s4.3623 -1.04883 5.65625 -2.3418l40 -40c1.23926 -1.28418 2.24512 -3.77344 2.24512 -5.55762c0 -4.41602 -3.58398 -8 -8 -8c-1.78418 0 -4.27344 1.00586 -5.55762 2.24512l-40 40c-1.29297 1.29395 -2.3418 3.82715 -2.3418 5.65625s1.04883 4.3623 2.3418 5.65625z
M68.8477 312.648c-2.6748 1.14746 -4.8457 4.44043 -4.8457 7.35156s2.1709 6.2041 4.8457 7.35156l72 30.8564c0.858398 0.382812 2.31738 0.693359 3.25684 0.693359c4.41602 0 8 -3.58398 8 -8c0 -2.95703 -2.21875 -6.27148 -4.95215 -7.39746l-54.8408 -23.5039
l147.688 -63.2959l147.688 63.2959l-147.688 63.2959l-64.8965 -27.8076c-0.890625 -0.418945 -2.41309 -0.757812 -3.39746 -0.757812c-4.41602 0 -8 3.58398 -8 8c0 3.01758 2.28223 6.35742 5.09375 7.45312l68.0479 29.168
c0.833984 0.354492 2.24609 0.642578 3.15234 0.642578s2.31836 -0.288086 3.15234 -0.642578l168 -72c2.67578 -1.14648 4.84766 -4.44043 4.84766 -7.35156v-57.4717c8.83203 -3.12305 16 -13.2598 16 -22.6279c0 -13.248 -10.752 -24 -24 -24s-24 10.752 -24 24
c0 9.36816 7.16797 19.5049 16 22.6279v45.3438l-156.848 -67.2002c-0.833984 -0.357422 -2.24609 -0.647461 -3.15234 -0.647461s-2.31836 0.290039 -3.15234 0.647461l-84.8477 36.3604v-95.2002c23.7324 -7.34961 63.1562 -13.3145 88 -13.3145
s64.2676 5.96484 88 13.3145v75.3115c0 4.41602 3.58398 8 8 8s8 -3.58398 8 -8v-81.1436c-0.00195312 -3.18066 -2.4541 -6.5791 -5.47168 -7.58398c-26.4219 -8.77441 -70.4609 -15.8965 -98.3018 -15.8965h-0.226562h-0.22168
c-27.8418 0 -71.8828 7.12207 -98.3066 15.8965c-3.01758 1.00488 -5.46973 4.40332 -5.47168 7.58398v107.872zM408 232c4.41602 0 8 3.58398 8 8s-3.58398 8 -8 8s-8 -3.58398 -8 -8s3.58398 -8 8 -8zM232 128c0 4.41602 3.58398 8 8 8s8 -3.58398 8 -8v-16
c0 -4.41602 -3.58398 -8 -8 -8s-8 3.58398 -8 8v16zM290.344 133.656c1.28418 1.23926 3.77344 2.24512 5.55762 2.24512c4.41602 0 8 -3.58398 8 -8c0 -1.78418 -1.00586 -4.27344 -2.24512 -5.55762l-16 -16c-1.30273 -1.34766 -3.87988 -2.44238 -5.75488 -2.44238
c-4.41602 0 -8 3.58398 -8 8c0 1.875 1.09473 4.45215 2.44238 5.75488zM178.344 133.656c1.29395 1.29297 3.82715 2.3418 5.65625 2.3418s4.3623 -1.04883 5.65625 -2.3418l16 -16c1.23926 -1.28418 2.24512 -3.77344 2.24512 -5.55762c0 -4.41602 -3.58398 -8 -8 -8
c-1.78418 0 -4.27344 1.00586 -5.55762 2.24512l-16 16c-1.29297 1.29395 -2.3418 3.82715 -2.3418 5.65625s1.04883 4.3623 2.3418 5.65625zM473.6 -0.167969c3.53027 -0.720703 6.39746 -4.22949 6.40039 -7.83203v-32.04c0 -4.41602 -3.58398 -8 -8 -8
c-0.248047 0 -0.519531 0.0400391 -0.799805 0.0400391l-191.561 19.8477c-1.92383 -10.9561 -12.5137 -19.8477 -23.6377 -19.8477h-0.00195312h-32c-11.1055 0.0175781 -21.6787 8.90918 -23.5996 19.8477l-55.2002 -5.69531
c-0.226562 -0.0234375 -0.595703 -0.0429688 -0.824219 -0.0429688c-4.41699 0 -8.00293 3.58496 -8.00293 8.00293c0 3.9834 3.2168 7.5498 7.17871 7.95996l63.624 6.57617c0.210938 0.0195312 0.554688 0.0361328 0.767578 0.0361328
c1.71094 0 4.1377 -0.923828 5.41699 -2.06055c1.45605 -1.31445 2.63867 -3.97363 2.63965 -5.93555v-4.68848c0 -4.41602 3.58398 -8 8 -8h31.9756c4.41602 0 8 3.58398 8 8v4.68848c0.000976562 1.96191 1.18359 4.62109 2.64062 5.93555
c1.29004 1.13574 3.73145 2.05664 5.44922 2.05664c0.203125 0 0.532227 -0.0146484 0.734375 -0.0322266l191.2 -19.7842v16.624l-216 44.6875v-30.1758c0 -4.41602 -3.58398 -8 -8 -8s-8 3.58398 -8 8v30.1758l-216 -44.6875v-16.624l95.7119 9.91211
c0.226562 0.0234375 0.595703 0.0419922 0.824219 0.0419922c4.41992 0 8.00684 -3.58691 8.00684 -8.00684c0 -3.98535 -3.21777 -7.55371 -7.18262 -7.96387l-104.561 -10.8477c-0.219727 -0.0224609 -0.578125 -0.0400391 -0.799805 -0.0400391
c-4.41602 0 -8 3.58398 -8 8v0.0400391v32c0.00683594 3.59863 2.87402 7.10449 6.40039 7.82422l17.5996 3.64746v10.1279v0.00488281c0 13.5371 10.6084 27.3799 23.6797 30.8994l149.92 40.3682c2.83496 0.773438 7.52051 1.40137 10.459 1.40137
c7.47949 0 18.3564 -3.70996 24.2773 -8.28125c2.41113 -1.86523 5.84473 -5.3623 7.66406 -7.80859c1.81934 2.44629 5.25293 5.94336 7.66406 7.80859c5.91797 4.57324 16.79 8.28516 24.2695 8.28516c2.94043 0 7.62988 -0.629883 10.4668 -1.40527l149.888 -40.3682
c3.25781 -0.884766 5.90234 -4.34375 5.90234 -7.71973c0 -4.40234 -3.57227 -7.98633 -7.97461 -8h-0.0507812c-0.570312 0 -1.47949 0.121094 -2.0293 0.271484l-149.928 40.3682c-1.68457 0.451172 -4.46582 0.817383 -6.20996 0.817383
c-13.0986 0 -23.8506 -10.6309 -23.998 -23.7295zM40 13.5996v-6.80762l192 39.7197c-0.147461 13.0996 -10.8984 23.7305 -23.998 23.7305c-1.75293 0 -4.5498 -0.370117 -6.24219 -0.826172l-149.92 -40.3682c-6.53516 -1.75977 -11.8389 -8.67969 -11.8398 -15.4482z" />
    <glyph glyph-name="001-value" unicode="&#xf100;" 
d="M435.1 149.8c4.69824 2.54297 12.8457 4.60742 18.1875 4.60742c11.9346 0 26.6064 -8.30469 32.75 -18.5361c0.474609 -0.788086 0.859375 -2.1748 0.859375 -3.09473c0 -1.74316 -1.16602 -3.95996 -2.60352 -4.94629l-139.164 -95.5518
c-0.194336 -0.133789 -0.522461 -0.326172 -0.734375 -0.430664c-12.0068 -5.91211 -32.6133 -10.7119 -45.998 -10.7119c-5.10059 0 -13.3164 0.729492 -18.3389 1.62793l-80.459 14.8164c-0.125977 0.0214844 -0.250977 0.0498047 -0.375 0.0810547
c-1.58691 0.402344 -4.2041 0.728516 -5.8418 0.728516c-3.39258 0 -8.55469 -1.33301 -11.5225 -2.97559l-39.5547 -25l12.7002 -41.6738c0.144531 -0.472656 0.260742 -1.25684 0.260742 -1.75c0 -3.3125 -2.6875 -6 -6 -6h-96.6738v0
c-2.93262 0 -5.60059 2.3623 -5.95605 5.27344l-21.4834 176.16c-0.0244141 0.200195 -0.0439453 0.525391 -0.0439453 0.726562c0 3.31152 2.6875 6 6 6v0h64.4521c2.45312 0 5.02441 -1.9043 5.73926 -4.25l7.56934 -24.8467
c5.4082 1.61914 13.2227 5.97461 17.4424 9.72363l13.3271 11.8633c0.12207 0.113281 0.25 0.212891 0.380859 0.313477c13.9902 10.5811 39.5811 19.1689 57.1221 19.1689c12.042 0 30.6025 -4.27539 41.4307 -9.54395l5.51953 -2.66992
c6.56348 -3.16406 17.8037 -5.73926 25.0898 -5.74902h40.126l30.1553 16.3994c5.43848 3.13086 14.9443 5.67188 21.2188 5.67188c8.60352 0 20.915 -4.51172 27.4814 -10.0713l5.59961 3.01465c0.0439453 0.0234375 0.0888672 0.046875 0.134766 0.0693359
c12.6475 6.41016 29.249 1.9043 38.8301 -9.72461zM399.383 147.572l-40.6934 -21.9248c2.59668 -3.29297 5.83398 -9.17578 7.22754 -13.1318l3.09961 1.63379l52.7725 28.4697c-5.88184 5.61328 -15.0908 8.61621 -22.4062 4.95312zM345.27 149.057l-12.7891 -6.94336
c5.17773 -1.13281 12.8555 -4.58789 17.1377 -7.71289l26.8311 14.4453c-4.01465 2.42285 -11.0771 4.38867 -15.7656 4.38867c-4.51855 0 -11.3604 -1.83496 -15.2715 -4.09668c-0.0419922 -0.0273438 -0.0947266 -0.0537109 -0.142578 -0.0810547zM57.9004 -27.0098
h83.2637l-50.0498 164.16h-53.2295zM338.684 42.4209l133.66 91.7676c-4.28223 4.53613 -12.8223 8.21777 -19.0615 8.21777c-3.66602 0 -9.25781 -1.41602 -12.4824 -3.16211l-66.1484 -35.6758l-6.26172 -3.30078
c0.0595703 -0.957031 0.100586 -1.91895 0.100586 -2.88965c0 -3.31152 -2.68848 -6 -6 -6c-0.0898438 0 -0.181641 0.00585938 -0.272461 0.00585938l-45.6562 2.06543c-2.73438 0.123047 -7.17578 0.223633 -9.91309 0.223633
c-8.35156 0 -21.8447 -0.928711 -30.1172 -2.07227c-0.210938 -0.0263672 -0.553711 -0.0488281 -0.765625 -0.0488281c-3.31152 0 -6 2.68848 -6 6c0 2.85742 2.29395 5.51562 5.11914 5.93555c8.73242 1.20605 22.9746 2.18457 31.79 2.18457
c2.87988 0 7.55273 -0.104492 10.4307 -0.233398l38.7949 -1.75586c-2.89941 15.1533 -17.7734 27.4688 -33.2002 27.4902h-53.5254c-8.80371 0.0117188 -22.3848 3.12402 -30.3145 6.94629l-5.51953 2.66992c-9.46094 4.60352 -25.6787 8.33984 -36.1992 8.33984
c-15.2529 0 -37.5273 -7.43945 -49.7188 -16.6045l-13.1387 -11.7002c-5.30273 -4.71777 -15.1211 -10.209 -21.917 -12.2568l26.2998 -86.251l36.915 23.3369c0.0908203 0.0576172 0.183594 0.113281 0.277344 0.165039c4.50195 2.52637 12.3467 4.57715 17.5098 4.57715
c2.40137 0 6.24316 -0.466797 8.5752 -1.04297l80.2607 -14.7793c4.43457 -0.792969 11.6904 -1.43652 16.1953 -1.43652c11.709 0 29.7559 4.15918 40.2832 9.28418zM76.9736 -2.18848c0.0117188 10.416 8.47461 18.8789 18.8906 18.8906
c10.4268 0 18.8896 -8.46289 18.8896 -18.8906c0 -10.4268 -8.46289 -18.8896 -18.8896 -18.8896c-10.4277 0 -18.8906 8.46289 -18.8906 18.8896zM95.8643 4.70215v-0.00195312c-3.79688 -0.00585938 -6.88379 -3.0918 -6.89062 -6.88867
c0 -3.80273 3.08691 -6.88965 6.89062 -6.88965c3.80273 0 6.88965 3.08691 6.88965 6.88965c0 3.80371 -3.08691 6.89062 -6.88965 6.89062zM301.622 357.695c-0.117188 -25.0225 -20.5205 -45.3311 -45.5439 -45.3311c-25.0225 0 -45.4258 20.3086 -45.543 45.3311
v19.7715c0.117188 25.0225 20.5205 45.3311 45.543 45.3311c25.0234 0 45.4268 -20.3086 45.5439 -45.3311v-19.7715zM222.535 357.695c0.100586 -18.415 15.1279 -33.3613 33.543 -33.3613c18.416 0 33.4434 14.9463 33.5439 33.3613v19.7715
c-0.100586 18.415 -15.1279 33.3613 -33.5439 33.3613c-18.415 0 -33.4424 -14.9463 -33.543 -33.3613v-19.7715zM182.668 188.575c-3.31152 0 -6 2.6875 -6 6v13.7715h-100.668c-3.31152 0 -6 2.68848 -6 6v38.9443c0.00390625 24.1885 19.6309 44.3184 43.8105 44.9336
c0.0390625 0.000976562 0.102539 0.00195312 0.141602 0.00195312c1.67285 0 3.83789 -1.09082 4.83398 -2.43457c4.55664 -6.1582 14.4727 -11.1562 22.1338 -11.1562c7.2002 0 16.7461 4.52246 21.3066 10.0957c1.33301 1.62695 2.99023 3.65234 6.17969 3.41797
c6.08496 -0.375 15.249 -3.25195 20.457 -6.42285c0.701172 0.81543 1.41992 1.61816 2.17773 2.39355c7.90137 8.12793 23.5117 14.9375 34.8447 15.2002c0.0439453 0.000976562 0.115234 0.00195312 0.15918 0.00195312c1.66895 0 3.82617 -1.09082 4.81641 -2.43457
c5.34668 -7.22754 16.9824 -13.0928 25.9727 -13.0928c8.4502 0 19.6523 5.30762 25.0039 11.8477c1.51953 1.84473 3.08691 3.72656 6.1875 3.60059c11.7529 -0.709961 27.5225 -8.53223 35.1992 -17.459c5.61621 3.40625 15.5039 6.29102 22.0713 6.43848
c0.0410156 0.000976562 0.108398 0.00195312 0.149414 0.00195312c1.6709 0 3.83301 -1.09082 4.82617 -2.43457c4.55664 -6.1582 14.4727 -11.1562 22.1338 -11.1562c7.20117 0 16.7471 4.52246 21.3076 10.0947c1.33398 1.62793 2.97949 3.65332 6.17871 3.41895
c23.2305 -1.4834 42.0947 -21.5791 42.1084 -44.8564v-38.9443c0 -3.31152 -2.68848 -6 -6 -6h-100.51v-13.7715c0 -3.3125 -2.68848 -6 -6 -6h-146.822zM342.734 286.033c-3.77734 -0.416016 -9.50684 -2.30664 -12.7891 -4.22168
c3.06055 -5.95898 5.54492 -16.2334 5.54492 -22.9336v-0.0400391v-38.4912h94.5098v32.9443c-0.0146484 15.6533 -12.5879 30.252 -28.0664 32.5869c-6.51074 -7.3125 -19.7402 -13.2471 -29.5312 -13.2471c-9.85938 0 -23.1504 6.00488 -29.668 13.4023zM223.3 297.138
c-18.9971 -2.03516 -34.5127 -19.1943 -34.6318 -38.2998v-58.2627h134.826v58.2627c-0.0175781 18.5176 -14.918 35.6045 -33.2598 38.1406c-7.31152 -8.38281 -22.2744 -15.1875 -33.3984 -15.1875c-11.1943 0 -26.2188 6.87598 -33.5361 15.3467zM82 220.347h94.668
v38.4912v0.0703125c0 6.66699 2.45801 16.8984 5.4873 22.8379c-3.01172 1.76465 -8.25781 3.61621 -11.71 4.13184c-6.51074 -7.31152 -19.7393 -13.2451 -29.5293 -13.2451c-9.85645 0 -23.1445 6.00195 -29.6621 13.3965
c-16.0469 -1.91211 -29.1523 -16.5781 -29.2539 -32.7383v-32.9443zM412.354 339.821c0 -22.418 -18.1934 -40.6123 -40.6113 -40.6123s-40.6123 18.1943 -40.6123 40.6123v17.3066c0 22.418 18.1943 40.6123 40.6123 40.6123s40.6113 -18.1943 40.6113 -40.6123v-17.3066z
M343.13 339.821c0 -15.7939 12.8184 -28.6123 28.6123 -28.6123s28.6113 12.8184 28.6113 28.6123v17.3066c0 15.7939 -12.8174 28.6123 -28.6113 28.6123s-28.6123 -12.8184 -28.6123 -28.6123v-17.3066zM180.87 339.821c0 -22.418 -18.1943 -40.6123 -40.6123 -40.6123
s-40.6113 18.1943 -40.6113 40.6123v17.3066c0 22.418 18.1934 40.6123 40.6113 40.6123s40.6123 -18.1943 40.6123 -40.6123v-17.3066zM111.646 339.821c0 -15.7939 12.8174 -28.6123 28.6113 -28.6123s28.6123 12.8184 28.6123 28.6123v17.3066
c0 15.7939 -12.8184 28.6123 -28.6123 28.6123s-28.6113 -12.8184 -28.6113 -28.6123v-17.3066z" />
    <glyph glyph-name="005-checklist" unicode="&#xf104;" 
d="M363.875 183.742h-5.09668l-6.77832 -25.0645c12.2783 -1.45996 21.875 -11.8145 21.875 -24.4844c0 -13.6572 -11.1133 -24.7744 -24.7744 -24.7744h-90.8389c-13.6572 0 -24.7734 -11.1162 -24.7734 -24.7734h72.0605c13.3545 0 26.5479 -2.1377 39.2178 -6.35938
l13.915 -4.64062c19.29 -6.43164 40.3066 -7.23438 60.0518 -2.30273l38.416 9.60059c9.82617 2.45605 19.9512 3.70215 30.0762 3.70215h24.7744v-16.5166h-24.7744c-8.77832 0 -17.5479 -1.08008 -26.0723 -3.21387l-38.415 -9.60059
c-0.520508 -0.125 -1.05664 -0.165039 -1.57715 -0.290039v-69.4756h-107.354v-49.5488h-313.807v462.451h107.354v49.5488h313.807v-277.597l23.2949 -15.5322c4.08789 -2.72559 8.84668 -4.16113 13.75 -4.16113h53.7939v-16.5166h-53.8027
c-8.17285 0 -16.0928 2.40332 -22.9072 6.93555l-57.6729 38.4521c-4.08887 2.72559 -8.83496 4.16113 -13.7422 4.16113zM353.443 57.9795l-13.9111 4.63379c-4.14062 1.38672 -8.3584 2.41895 -12.6133 3.28613l-6.76172 -25.0488
c-1.20605 -4.47559 -3.45117 -8.43164 -6.35059 -11.7744v-27.0117h90.8389v50.2822c-3.98047 -0.386719 -7.97656 -0.733398 -11.9844 -0.733398c-13.3506 0 -26.5479 2.13672 -39.2178 6.36621zM310.371 67.9395c-1.60938 0.0644531 -3.21387 0.189453 -4.82227 0.189453
h-26.0049l-4.28613 -15.8711c-0.314453 -1.15723 -0.47168 -2.34668 -0.47168 -3.55176c0 -7.50879 6.10547 -13.6094 13.6094 -13.6094h2.67676c6.1377 0 11.5449 4.13672 13.1455 10.0684zM262.432 68.1289h-28.9355c-9.10938 0 -16.5166 7.40723 -16.5166 16.5166
c0 0.411133 0.117188 0.793945 0.125 1.19727c-2.37891 -0.709961 -4.83008 -1.19727 -7.375 -1.19727c-14.2217 0 -25.7822 11.5605 -25.7822 25.7734c0 6.89551 2.68555 13.3711 7.55664 18.2344l13.7988 13.7979h-31.8838v16.5166h48.3916l16.5156 16.5156h-64.9072
v16.5166h82.2588c7.07617 5.27832 15.54 8.25781 24.5283 8.25781h17.084v181.678h-156.903v16.5156h173.42v-140.245l22.9551 84.9434c3.54492 13.1123 15.5049 22.2695 29.085 22.2695h2.67773c16.6084 0 30.125 -13.5117 30.125 -30.125
c0 -2.66895 -0.34668 -5.31055 -1.04102 -7.87012l-34.3701 -127.166h0.636719c8.17773 0 16.0967 -2.40332 22.9072 -6.93555l17.8633 -11.9111v250.072h-280.774v-49.5479h-107.354v-429.419h280.773v66.79c-2.02344 -0.427734 -4.08887 -0.725586 -6.21777 -0.725586
h-1.58398l-2.56934 -10.2588l-16.0195 4.00879l2.59277 10.3545c-9.04492 5.20117 -15.2217 14.8545 -15.2217 26.0205c0 2.66895 0.34668 5.31055 1.04004 7.87012zM326.044 125.936l32.3232 119.585l-28.3271 9.43945l-34.8711 -129.024h30.875zM262.689 176.492
l-59.5156 -59.5244c-1.75 -1.75 -2.71777 -4.07227 -2.71777 -6.54883c0 -5.10449 4.15234 -9.25781 9.26562 -9.25781c2.43555 0 4.82227 0.992188 6.54883 2.71777l43 43c7.43066 7.43164 17.2256 11.5605 27.6729 11.9395l6.73828 24.9238h-13.4756
c-6.5166 0 -12.8994 -2.6416 -17.5166 -7.25zM270.947 135.201l-9.25781 -9.26562h16.3672l4.22168 15.625c-4.23828 -1.10938 -8.20996 -3.23828 -11.3311 -6.35938zM381.661 331.733c0.314453 1.16602 0.47168 2.35547 0.47168 3.56055
c0 7.50879 -6.10059 13.6094 -13.6084 13.6094h-2.67773c-6.13281 0 -11.5361 -4.13672 -13.1455 -10.0684l-9.47949 -35.0771l28.3271 -9.43945zM338.911 287.786l-4.56055 -16.8545l28.3271 -9.43945l4.56055 16.8545zM349.101 142.451h-1.4834l-4.46777 -16.5156h5.95117
c4.55273 0 8.25781 3.70996 8.25781 8.25781c0 4.54883 -3.70508 8.25781 -8.25781 8.25781zM349.101 142.451zM247.742 365.419v-82.5801h-214.71v82.5801h214.71zM231.226 299.354v49.5488h-181.677v-49.5488h181.677zM231.226 299.354zM66.0645 332.387h16.5166v-16.5156
h-16.5166v16.5156zM66.0645 332.387zM99.0967 332.387h16.5166v-16.5156h-16.5166v16.5156zM99.0967 332.387zM132.129 332.387h16.5166v-16.5156h-16.5166v16.5156zM132.129 332.387zM165.161 332.387h16.5166v-16.5156h-16.5166v16.5156zM165.161 332.387z
M198.193 332.387h16.5166v-16.5156h-16.5166v16.5156zM198.193 332.387zM132.129 183.742v-49.5488h-99.0967v99.0967h66.0645v-16.5156h-49.5479v-66.0645h66.0645v33.0322h16.5156zM132.129 183.742zM159.322 263.903l11.6777 -11.6777l-88.4189 -88.4189
l-22.3555 22.3545l11.6777 11.6777l10.6777 -10.6777zM159.322 263.903zM115.613 10.3223v33.0322h16.5156v-49.5479h-99.0967v99.0967h66.0645v-16.5166h-49.5479v-66.0645h66.0645zM115.613 10.3223zM71.9033 57.4512l10.6777 -10.6768l76.7412 76.7422l11.6777 -11.6777
l-88.4189 -88.4199l-22.3555 22.3555zM71.9033 57.4512zM264.258 -6.19336h16.5166v-16.5166h-16.5166v16.5166zM264.258 -6.19336zM156.903 -6.19336h90.8389v-16.5166h-90.8389v16.5166zM156.903 -6.19336zM173.419 225.032h107.355v-16.5156h-107.355v16.5156z
M173.419 225.032z" />
    <glyph glyph-name="017-kids-couple" unicode="&#xf110;" 
d="M134.538 253.087c-37.1758 0 -67.2061 30.0723 -67.2061 67.248c0 20.5586 -11.4844 31.3926 3.08008 43.6943c11.7148 9.9541 33.2373 23.4492 49.792 23.4492c13.915 0 61.0244 -3.45801 71.7539 -10.7715c17.8965 -12.0283 9.74512 -33.2363 9.74512 -56.3926
c0 -37.1553 -30.0518 -67.2275 -67.165 -67.2275zM87.7227 326.895c-0.44043 -2.68262 -0.817383 -5.36426 -0.817383 -8.15234c0 -27.6621 21.9824 -50.0215 49.0996 -50.0215c27.2646 0 49.2266 22.3594 49.2266 50.0215c0 2.78809 -0.37793 5.46973 -0.796875 8.08984
c-11.9443 2.34668 -35.4365 5.28027 -56.4346 -1.76074c-9.43066 -5.13379 1.06836 10.0381 1.06836 10.0381l-20.6201 -10.0381s-8.38281 4.06543 -20.7256 1.82324zM462.418 329.744c45.7891 -8.15137 77.8936 -82.7344 12.6572 -83.2998
c2.59863 24.623 -8.06836 47.5488 -14.418 58.7393c-8.31934 -34.2627 -39.041 -59.8926 -75.8398 -59.8926c-38.8105 0 -70.8525 28.5215 -76.9512 65.6348c-6.60059 -6.93652 -23.7432 -28.5215 -19.8037 -64.4609c-41.4092 1.17383 -48.8691 69.9932 18.9443 81.834
c0.398438 6.3916 1.59277 12.5312 3.4375 18.3994c2.74512 23.8896 14.124 63.1406 66.2627 64.377c60.501 1.4248 81.582 -46.4385 84.2441 -69.9932c0.837891 -3.68848 1.15234 -7.50293 1.4668 -11.3379zM384.817 267.421c30.9941 0 56.1416 25.1895 56.0996 56.1631
c0 0.649414 -0.167969 1.29883 -0.188477 1.92773l-1.48828 1.25684s-40.1104 -4.61035 -52.8301 -1.13184v29.8213s-20.0557 -37.8467 -31.6016 -33.8232c0 21.7734 -6.60156 24.0361 -6.60156 24.0361s-8.25684 -19.2793 -19.3848 -23.3242
c0.691406 -30.3652 25.5039 -54.9258 55.9951 -54.9258zM401.163 243.279h30.4072l74.7295 -101.05l-31.2246 -7.77539l-47.1299 63.1621l-2.7041 -33.6553l49.3311 -96.2305h-50.0645v-83.7832h8.4873v-9.74414h-38.6426v9.74414v83.7832h-14.4395v-83.7832h-0.0410156
v-9.74414h-38.623v9.74414h8.4873v83.7832h-64.5859l55.9941 96.2305l-3.43652 27.3477l-60.291 -69.0088l-12.0498 3.01758l-21.752 -5.36426l-53.2285 54.6533v-108.112h-16.1992v-83.7617h8.46582v-9.8291h-38.5801v9.8291v83.7617h-14.4805v-83.7617v-9.8291h-38.6641
v9.8291h8.4873v83.7617h-13.3496v110.187l-66.5771 -56.8115l-19.4893 20.0967l93.0029 102.099h88.791l78.1035 -96.0215l80.7021 97.2363h27.5576h33.0059z" />
    <glyph glyph-name="009-house" unicode="&#xf108;" 
d="M501.999 -44c5.52246 0 10 -4.47559 10 -9.99902s-4.47754 -10 -10 -10h-54h-139.999h-104h-139.999h-54c-5.52246 0 -10 4.47656 -10 10s4.47754 10 10 10h44v225.999h-44c-4.04492 0 -7.69238 2.43555 -9.24023 6.17285s-0.69043 8.03809 2.16797 10.8984l96 95.999
c3.90625 3.90527 10.2383 3.9043 14.1426 0c3.90527 -3.90527 3.90527 -10.2373 0 -14.1426l-78.9287 -78.9277h39.5635l175.222 175.223c3.90723 3.9043 10.2373 3.9043 14.1436 0l175.222 -175.223h39.5635l-221.856 221.857l-86.9287 -86.9287
c-3.90527 -3.90625 -10.2373 -3.90625 -14.1426 0c-3.90527 3.9043 -3.90527 10.2363 0 14.1416l93.999 94c3.90723 3.9043 10.2373 3.9043 14.1436 0l245.999 -245.999c2.8584 -2.86035 3.71582 -7.16211 2.16797 -10.8984
c-1.54785 -3.73535 -5.19434 -6.17285 -9.23926 -6.17285h-44v-75c0 -5.52246 -4.47754 -10 -10 -10c-5.52148 0 -10 4.47754 -10 10v75h-3.84766c-2.65234 0 -5.19531 1.05371 -7.07129 2.92871l-171.08 171.081l-171.08 -171.081
c-1.87598 -1.875 -4.41895 -2.92871 -7.07129 -2.92871h-3.84766v-226h119.999v189.999c0 5.52344 4.47852 10 10 10h104c5.52148 0 10 -4.47656 10 -10v-189.999h119.999v79c0 5.52246 4.47852 10 10 10c5.52246 0 10 -4.47754 10 -10v-79h44zM298 -44v179.999h-84
v-179.999h84zM405.999 155.999c5.52246 0 10 -4.47656 10 -10v-99.999c0 -5.52344 -4.47754 -10 -10 -10h-55.999c-5.52246 0 -10 4.47656 -10 10v99.999c0 5.52344 4.47754 10 10 10h55.999zM395.999 56v79.999h-35.999v-79.999h35.999zM162 155.999
c5.52246 0 10 -4.47656 10 -10v-99.999c0 -5.52344 -4.47754 -10 -10 -10h-55.999c-5.52246 0 -10 4.47656 -10 10v99.999c0 5.52344 4.47754 10 10 10h55.999zM152 56v79.999h-35.999v-79.999h35.999zM256 283.679c25.3643 0 46 -20.6357 46 -46s-20.6357 -46 -46 -46
s-46 20.6357 -46 46s20.6357 46 46 46zM256 211.679c14.3369 0 26 11.6641 26 26s-11.6631 26 -26 26s-26 -11.6641 -26 -26s11.6631 -26 26 -26zM244.069 53.0693c1.86035 -1.85938 2.93066 -4.43945 2.93066 -7.06934c0 -2.63086 -1.07129 -5.20996 -2.93066 -7.07031
s-4.43945 -2.92969 -7.06934 -2.92969s-5.20898 1.06934 -7.07031 2.92969c-1.86035 1.86035 -2.92969 4.43945 -2.92969 7.07031c0 2.62988 1.07031 5.20996 2.92969 7.06934c1.86035 1.86035 4.44043 2.93066 7.07031 2.93066
c2.62891 0 5.20996 -1.07031 7.06934 -2.93066zM140.069 322.068c1.86133 -1.85938 2.93066 -4.43945 2.93066 -7.07031c0 -2.62988 -1.07031 -5.20996 -2.93066 -7.06934c-1.8584 -1.86035 -4.43848 -2.92969 -7.06934 -2.92969
c-2.62988 0 -5.20898 1.06934 -7.06934 2.92969c-1.86133 1.85938 -2.92969 4.43945 -2.92969 7.06934c0 2.63086 1.06934 5.21094 2.92969 7.07031c1.85938 1.86035 4.43945 2.92969 7.06934 2.92969c2.63086 0 5.21094 -1.06934 7.06934 -2.92969zM455.068 80.7402
c1.86133 -1.85938 2.93066 -4.43945 2.93066 -7.06934c0 -2.64062 -1.07129 -5.20996 -2.93066 -7.08008c-1.85938 -1.86035 -4.43945 -2.91992 -7.06934 -2.91992s-5.20996 1.05957 -7.06934 2.91992c-1.86133 1.87012 -2.93066 4.44922 -2.93066 7.08008
c0 2.62988 1.07031 5.19922 2.93066 7.06934c1.85938 1.86035 4.43945 2.93066 7.06934 2.93066c2.62891 0 5.20996 -1.07129 7.06934 -2.93066z" />
  </font>
</defs></svg>
